"oligonames2"
"B000029533"	"marine"
"B000020886"	"marine"
"B000029591"	"marine"
"B000029593"	"marine"
"B000029562"	"marine"
"B000029561"	"marine"
"B000029583"	"marine"
"B000029586"	"marine"
"B000029592"	"marine"
"B000031655"	"marine"
"B000031657"	"marine"
"B000031656"	"shared"
"B000029528"	"marine"
"B000029527"	"shared"
"B000031664"	"marine"
"B000020793"	"marine"
"B000020865"	"marine"
"B000020792"	"marine"
"B000020790"	"marine"
"B000020477"	"marine"
"B000029534"	"marine"
"B000031663"	"marine"
"B000020863"	"marine"
"B000005049"	"freshwater"
"B000015689"	"shared"
"B000015666"	"shared"
"B000001369"	"freshwater"
"B000017631"	"freshwater"
"B000003648"	"freshwater"
"B000015926"	"freshwater"
"B000015925"	"freshwater"
"B000028338"	"freshwater"
"B000028337"	"freshwater"
"B000001368"	"freshwater"
"B000028898"	"freshwater"
"B000019734"	"freshwater"
"B000019735"	"freshwater"
"B000028899"	"freshwater"
"B000028904"	"freshwater"
"B000028900"	"freshwater"
"B000027818"	"freshwater"
"B000027683"	"freshwater"
"B000031311"	"freshwater"
"B000031314"	"freshwater"
"B000027956"	"freshwater"
"B000027955"	"freshwater"
"B000031294"	"freshwater"
"B000031291"	"freshwater"
"B000027918"	"freshwater"
"B000031309"	"freshwater"
"B000031295"	"freshwater"
"B000031367"	"freshwater"
"B000031370"	"freshwater"
"B000027920"	"freshwater"
"B000027917"	"freshwater"
"B000027900"	"freshwater"
"B000027902"	"freshwater"
"B000028000"	"freshwater"
"B000027893"	"freshwater"
"B000017841"	"freshwater"
"B000023386"	"freshwater"
"B000027890"	"freshwater"
"B000027891"	"freshwater"
"B000027892"	"freshwater"
"B000017837"	"freshwater"
"B000017838"	"freshwater"
"B000017836"	"freshwater"
"B000027999"	"freshwater"
"B000017614"	"freshwater"
"B000017921"	"freshwater"
"B000000125"	"freshwater"
"B000005454"	"freshwater"
"B000027815"	"freshwater"
"B000017846"	"freshwater"
"B000027901"	"freshwater"
"B000027922"	"freshwater"
"B000027949"	"freshwater"
"B000027988"	"freshwater"
"B000027987"	"freshwater"
"B000002069"	"freshwater"
"B000031334"	"freshwater"
"B000031332"	"freshwater"
"B000031333"	"freshwater"
"B000031335"	"freshwater"
"B000031337"	"freshwater"
"B000027960"	"freshwater"
"B000027958"	"freshwater"
"B000017594"	"freshwater"
"B000031339"	"freshwater"
"B000028172"	"freshwater"
"B000028173"	"freshwater"
"B000031343"	"freshwater"
"B000028161"	"freshwater"
"B000028157"	"freshwater"
"B000027953"	"freshwater"
"B000031928"	"freshwater"
"B000031926"	"freshwater"
"B000031929"	"freshwater"
"B000018739"	"freshwater"
"B000023387"	"freshwater"
"B000031326"	"freshwater"
"B000031325"	"freshwater"
"B000031280"	"freshwater"
"B000031279"	"freshwater"
"B000027969"	"freshwater"
"B000027952"	"freshwater"
"B000028005"	"freshwater"
"B000031229"	"freshwater"
"B000031228"	"freshwater"
"B000031237"	"freshwater"
"B000031236"	"freshwater"
"B000031239"	"freshwater"
"B000031240"	"freshwater"
"B000031368"	"freshwater"
"B000027837"	"freshwater"
"B000017760"	"shared"
"B000028501"	"freshwater"
"B000028505"	"freshwater"
"B000031270"	"freshwater"
"B000005531"	"freshwater"
"B000005496"	"freshwater"
"B000031269"	"freshwater"
"B000031191"	"freshwater"
"B000031188"	"freshwater"
"B000031186"	"freshwater"
"B000027791"	"freshwater"
"B000027790"	"freshwater"
"B000027793"	"freshwater"
"B000027792"	"freshwater"
"B000017757"	"freshwater"
"B000027874"	"shared"
"B000027744"	"shared"
"B000031196"	"freshwater"
"B000031198"	"freshwater"
"B000031197"	"freshwater"
"B000027745"	"shared"
"B000028486"	"shared"
"B000031495"	"freshwater"
"B000031492"	"freshwater"
"B000031494"	"shared"
"B000031474"	"freshwater"
"B000031475"	"freshwater"
"B000028490"	"freshwater"
"B000017755"	"freshwater"
"B000027877"	"freshwater"
"B000031215"	"freshwater"
"B000031216"	"freshwater"
"B000027774"	"freshwater"
"B000027778"	"freshwater"
"B000031224"	"freshwater"
"B000031223"	"freshwater"
"B000031220"	"freshwater"
"B000031217"	"freshwater"
"B000027876"	"marine"
"B000027839"	"freshwater"
"B000027838"	"freshwater"
"B000027835"	"freshwater"
"B000031253"	"freshwater"
"B000031252"	"shared"
"B000031912"	"freshwater"
"B000031911"	"freshwater"
"B000031255"	"freshwater"
"B000031230"	"freshwater"
"B000031290"	"freshwater"
"B000031310"	"freshwater"
"B000028001"	"freshwater"
"B000017847"	"freshwater"
"B000017961"	"freshwater"
"B000017649"	"freshwater"
"B000017652"	"freshwater"
"B000027670"	"freshwater"
"B000027668"	"freshwater"
"B000027726"	"freshwater"
"B000027722"	"freshwater"
"B000031181"	"freshwater"
"B000031183"	"freshwater"
"B000023009"	"freshwater"
"B000023004"	"freshwater"
"B000031175"	"freshwater"
"B000031174"	"freshwater"
"B000018743"	"freshwater"
"B000017960"	"freshwater"
"B000027699"	"freshwater"
"B000027700"	"freshwater"
"B000017677"	"freshwater"
"B000018069"	"freshwater"
"B000028139"	"freshwater"
"B000023022"	"freshwater"
"B000018052"	"freshwater"
"B000028130"	"freshwater"
"B000027689"	"freshwater"
"B000027690"	"freshwater"
"B000017675"	"freshwater"
"B000017679"	"freshwater"
"B000017681"	"freshwater"
"B000027701"	"freshwater"
"B000028061"	"freshwater"
"B000028058"	"freshwater"
"B000018007"	"freshwater"
"B000028062"	"freshwater"
"B000028081"	"freshwater"
"B000028083"	"freshwater"
"B000028110"	"freshwater"
"B000018003"	"freshwater"
"B000017976"	"freshwater"
"B000028111"	"freshwater"
"B000018006"	"freshwater"
"B000028084"	"freshwater"
"B000018018"	"freshwater"
"B000028082"	"freshwater"
"B000028080"	"freshwater"
"B000028072"	"freshwater"
"B000018009"	"freshwater"
"B000028070"	"freshwater"
"B000017973"	"freshwater"
"B000017975"	"freshwater"
"B000027684"	"freshwater"
"B000017676"	"freshwater"
"B000027702"	"freshwater"
"B000027674"	"freshwater"
"B000028128"	"freshwater"
"B000028151"	"freshwater"
"B000028152"	"freshwater"
"B000028437"	"freshwater"
"B000028439"	"freshwater"
"B000028422"	"freshwater"
"B000028426"	"freshwater"
"B000028425"	"freshwater"
"B000028420"	"freshwater"
"B000018667"	"freshwater"
"B000018659"	"freshwater"
"B000017554"	"freshwater"
"B000017553"	"freshwater"
"B000017556"	"freshwater"
"B000017561"	"freshwater"
"B000017573"	"freshwater"
"B000027648"	"freshwater"
"B000027647"	"freshwater"
"B000027651"	"freshwater"
"B000017578"	"freshwater"
"B000031381"	"freshwater"
"B000031936"	"freshwater"
"B000031939"	"freshwater"
"B000031382"	"freshwater"
"B000031934"	"freshwater"
"B000028041"	"freshwater"
"B000005499"	"freshwater"
"B000018037"	"freshwater"
"B000018036"	"freshwater"
"B000028017"	"freshwater"
"B000028021"	"freshwater"
"B000028016"	"freshwater"
"B000009293"	"freshwater"
"B000009290"	"freshwater"
"B000009289"	"freshwater"
"B000022907"	"freshwater"
"B000022906"	"freshwater"
"B000022905"	"freshwater"
"B000022909"	"freshwater"
"B000001343"	"freshwater"
"B000022859"	"freshwater"
"B000022890"	"freshwater"
"B000022860"	"freshwater"
"B000022888"	"freshwater"
"B000022862"	"freshwater"
"B000009244"	"freshwater"
"B000009237"	"freshwater"
"B000001351"	"freshwater"
"B000022887"	"freshwater"
"B000022889"	"freshwater"
"B000022861"	"freshwater"
"B000022877"	"freshwater"
"B000022849"	"freshwater"
"B000022878"	"freshwater"
"B000022851"	"freshwater"
"B000010283"	"freshwater"
"B000028137"	"freshwater"
"B000030230"	"freshwater"
"B000009463"	"freshwater"
"B000023020"	"freshwater"
"B000023021"	"freshwater"
"B000030232"	"freshwater"
"B000018048"	"freshwater"
"B000027656"	"freshwater"
"B000027655"	"freshwater"
"B000017595"	"freshwater"
"B000028127"	"freshwater"
"B000027673"	"freshwater"
"B000017651"	"freshwater"
"B000031176"	"freshwater"
"B000018744"	"freshwater"
"B000017541"	"freshwater"
"B000028476"	"marine"
"B000018738"	"shared"
"B000031458"	"shared"
"B000031440"	"freshwater"
"B000031442"	"shared"
"B000031436"	"shared"
"B000031463"	"freshwater"
"B000005524"	"freshwater"
"B000027635"	"freshwater"
"B000027637"	"freshwater"
"B000017776"	"freshwater"
"B000028467"	"marine"
"B000028004"	"freshwater"
"B000005782"	"shared"
"B000005882"	"freshwater"
"B000018825"	"shared"
"B000028525"	"freshwater"
"B000028526"	"freshwater"
"B000018828"	"shared"
"B000018826"	"freshwater"
"B000018637"	"freshwater"
"B000018635"	"freshwater"
"B000018642"	"freshwater"
"B000018638"	"freshwater"
"B000018636"	"freshwater"
"B000004475"	"freshwater"
"B000008730"	"freshwater"
"B000014957"	"freshwater"
"B000008924"	"freshwater"
"B000008923"	"freshwater"
"B000009213"	"freshwater"
"B000001217"	"freshwater"
"B000001889"	"freshwater"
"B000009211"	"freshwater"
"B000009217"	"freshwater"
"B000001163"	"freshwater"
"B000001164"	"freshwater"
"B000004518"	"freshwater"
"B000008812"	"freshwater"
"B000008728"	"freshwater"
"B000027247"	"marine"
"B000027248"	"marine"
"B000027244"	"marine"
"B000027249"	"marine"
"B000027250"	"marine"
"B000027246"	"marine"
"B000027243"	"marine"
"B000027245"	"marine"
"B000016457"	"marine"
"B000016456"	"marine"
"B000016250"	"freshwater"
"B000016241"	"freshwater"
"B000016245"	"freshwater"
"B000016249"	"freshwater"
"B000016297"	"freshwater"
"B000016296"	"freshwater"
"B000027155"	"freshwater"
"B000027156"	"freshwater"
"B000027144"	"marine"
"B000027145"	"marine"
"B000016247"	"freshwater"
"B000004846"	"freshwater"
"B000016243"	"freshwater"
"B000001456"	"freshwater"
"B000006160"	"freshwater"
"B000004824"	"freshwater"
"B000006161"	"freshwater"
"B000016155"	"freshwater"
"B000016153"	"freshwater"
"B000016175"	"freshwater"
"B000016173"	"freshwater"
"B000016174"	"freshwater"
"B000027097"	"freshwater"
"B000027096"	"freshwater"
"B000016168"	"freshwater"
"B000015193"	"freshwater"
"B000015198"	"freshwater"
"B000026548"	"freshwater"
"B000026545"	"freshwater"
"B000026534"	"freshwater"
"B000026529"	"freshwater"
"B000014954"	"freshwater"
"B000026485"	"freshwater"
"B000026484"	"freshwater"
"B000026483"	"freshwater"
"B000026470"	"freshwater"
"B000026469"	"freshwater"
"B000015121"	"freshwater"
"B000016701"	"marine"
"B000016700"	"marine"
"B000027285"	"marine"
"B000027286"	"marine"
"B000016704"	"marine"
"B000016705"	"marine"
"B000016699"	"marine"
"B000016703"	"marine"
"B000026944"	"marine"
"B000015983"	"marine"
"B000026943"	"marine"
"B000026945"	"marine"
"B000026946"	"marine"
"B000026979"	"marine"
"B000026980"	"marine"
"B000027011"	"marine"
"B000027009"	"marine"
"B000027008"	"shared"
"B000015984"	"marine"
"B000015993"	"marine"
"B000026991"	"marine"
"B000026969"	"marine"
"B000026970"	"marine"
"B000027005"	"marine"
"B000027006"	"marine"
"B000026990"	"marine"
"B000026992"	"marine"
"B000015980"	"shared"
