DATASET_COLORSTRIP
#lines starting with a hash are comments and ignored during parsing
#select the separator which is used to delimit the data below (TAB,SPACE or COMMA).This separator must be used throught this file (except in the SEPARATOR line, which uses space).

SEPARATOR TAB
#SEPARATOR SPACE
#SEPARATOR COMMA

#label is used in the legend table (can be changed later)
DATASET_LABEL	color_strip1

#dataset color (can be changed later)
COLOR	#ff0000

#optional settings

#all other optional settings can be set or changed later in the web interface (under 'Datasets' tab)
COLOR_BRANCHES	1
#maximum width
STRIP_WIDTH	25

#left margin, used to increase/decrease the spacing to the next dataset. Can be negative, causing datasets to overlap.
MARGIN	0

#border width; if set above 0, a black border of specified width (in pixels) will be drawn around the color strip 
BORDER_WIDTH	1
BORDER_COLOR	#000

#show internal values; if set, values associated to internal nodes will be displayed even if these nodes are not collapsed. It could cause overlapping in the dataset display.
SHOW_INTERNAL	0

#In colored strip charts, each ID is associated to a color. Color can be specified in hexadecimal, RGB or RGBA notation
#Internal tree nodes can be specified using IDs directly, or using the 'last common ancestor' method described in iTOL help pages
#Actual data follows after the "DATA" keyword

DATA
X000008487	#000000
X000009792	#000000
X000023532	#f90101
X000009140	#f90101
X000023539	#f90101
X000009141	#f90101
X000009142	#f90101
X000009146	#f90101
X000009139	#f90101
X000009144	#f90101
X000009147	#f90101
X000023541	#f90101
X000023540	#f90101
X000023534	#f90101
X000029036	#f90101
X000023535	#f90101
X000023538	#f90101
X000030565	#f90101
X000030564	#f90101
X000009162	#f90101
X000032926	#f90101
X000014630	#000000
X000013307	#000000
X000033127	#000000
X000015359	#000000
X000015362	#000000
X000013802	#000000
X000013788	#000000
X000033331	#000000
X000008211	#000000
X000023140	#000000
X000023137	#000000
X000023139	#000000
X000010801	#000000
X000001400	#000000
X000026724	#000000
X000026723	#000000
X000013590	#000000
X000015441	#000000
X000032996	#f99f02
X000032752	#f99f02
X000005332	#f99f02
X000023407	#f99f02
X000023409	#f99f02
X000008690	#f99f02
X000008695	#f99f02
X000008691	#f99f02
X000002975	#f99f02
X000033237	#f99f02
X000005320	#f99f02
X000029720	#f99f02
X000029723	#f99f02
X000026635	#000000
X000030392	#f99f02
X000030393	#f99f02
X000023176	#f99f02
X000026498	#000000
X000031322	#000000
X000031321	#000000
X000012054	#f99f02
X000015515	#f99f02
X000026974	#f99f02
X000026483	#f99f02
X000031309	#f99f02
X000031313	#f99f02
X000031312	#f99f02
X000031320	#f99f02
X000031317	#f99f02
X000026973	#f99f02
X000015154	#f99f02
X000014954	#f99f02
X000031319	#f99f02
X000020784	#f99f02
X000015799	#f99f02
X000023187	#f99f02
X000023188	#f99f02
X000033139	#f99f02
X000015403	#f99f02
X000009655	#f99f02
X000016895	#f99f02
X000025087	#f99f02
X000009867	#f99f02
X000009651	#f99f02
X000023801	#000000
X000028875	#f99f02
X000028831	#f99f02
X000019211	#f99f02
X000019219	#f99f02
X000002281	#f99f02
X000028874	#f99f02
X000032656	#f99f02
X000032057	#f99f02
X000028850	#f99f02
X000032065	#f99f02
X000028878	#f99f02
X000032063	#f99f02
X000025088	#f99f02
X000029827	#f99f02
X000032350	#f99f02
X000030205	#f99f02
X000022510	#f99f02
X000022537	#f99f02
X000022544	#f99f02
X000022548	#f99f02
X000032285	#f99f02
X000032281	#f99f02
X000032284	#f99f02
X000022550	#f99f02
X000030204	#f99f02
X000032358	#f99f02
X000032357	#f99f02
X000032355	#f99f02
X000030199	#f99f02
X000030226	#f99f02
X000022545	#f99f02
X000029831	#f99f02
X000030220	#f99f02
X000032354	#f99f02
X000032261	#f99f02
X000032270	#f99f02
X000032269	#f99f02
X000022563	#f99f02
X000030231	#f99f02
X000013028	#f99f02
X000030235	#f99f02
X000032371	#f99f02
X000032370	#f99f02
X000022514	#f99f02
X000004243	#f99f02
X000032262	#f99f02
X000030243	#f99f02
X000017440	#f99f02
X000021245	#f99f02
X000017436	#f99f02
X000032363	#f99f02
X000032364	#f99f02
X000030246	#f99f02
X000032369	#f99f02
X000032365	#f99f02
X000032279	#f99f02
X000029826	#f99f02
X000022562	#f99f02
X000022560	#f99f02
X000033047	#f99f02
X000022508	#f99f02
X000002385	#f99f02
X000002391	#f99f02
X000021317	#f99f02
X000007171	#f99f02
X000022533	#f99f02
X000007176	#f99f02
X000022535	#f99f02
X000030185	#f99f02
X000030183	#f99f02
X000030177	#f99f02
X000007144	#f99f02
X000032757	#f99f02
X000000147	#f99f02
X000032734	#f99f02
X000030178	#f99f02
X000007114	#f99f02
X000030181	#f99f02
X000022529	#f99f02
X000032289	#f99f02
X000000666	#f99f02
X000007158	#f99f02
X000007163	#f99f02
X000000668	#f99f02
X000007112	#f99f02
X000007120	#f99f02
X000007121	#f99f02
X000007126	#f99f02
X000032286	#f99f02
X000021250	#f99f02
X000029836	#f99f02
X000032287	#f99f02
X000029837	#f99f02
X000029838	#f99f02
X000032291	#f99f02
X000007172	#f99f02
X000022526	#f99f02
X000007131	#f99f02
X000027848	#f99f02
X000029843	#f99f02
X000029844	#f99f02
X000022517	#f99f02
X000030176	#f99f02
X000030172	#f99f02
X000030175	#f99f02
X000007174	#f99f02
X000030169	#f99f02
X000030165	#f99f02
X000030170	#f99f02
X000030168	#f99f02
X000007138	#f99f02
X000027847	#f99f02
X000029830	#f99f02
X000032689	#f99f02
X000022543	#f99f02
X000022538	#f99f02
X000022577	#f99f02
X000022509	#f99f02
X000032690	#f99f02
X000030237	#f99f02
X000030202	#f99f02
X000032362	#f99f02
X000004249	#f99f02
X000000598	#f99f02
X000030200	#f99f02
X000030207	#f99f02
X000030242	#f99f02
X000022513	#f99f02
X000030245	#f99f02
X000032344	#f99f02
X000030218	#f99f02
X000030222	#f99f02
X000030213	#f99f02
X000032266	#f99f02
X000032263	#f99f02
X000030209	#f99f02
X000032679	#f99f02
X000032347	#f99f02
X000032271	#f99f02
X000023809	#f99f02
X000029820	#f99f02
X000032276	#f99f02
X000032280	#f99f02
X000032682	#f99f02
X000030210	#f99f02
X000032273	#f99f02
X000032343	#f99f02
X000032348	#f99f02
X000030195	#f99f02
X000030187	#f99f02
X000032360	#f99f02
X000030194	#f99f02
X000032339	#f99f02
X000032336	#f99f02
X000030192	#f99f02
X000030191	#f99f02
X000032837	#f99f02
X000032686	#f99f02
X000032683	#f99f02
X000004251	#f99f02
X000006451	#f99f02
X000014461	#f99f02
X000006448	#f99f02
X000006454	#f99f02
X000006447	#f99f02
X000006450	#f99f02
X000019522	#f99f02
X000030227	#f99f02
X000022579	#f99f02
X000030216	#f99f02
X000030229	#f99f02
X000030215	#f99f02
X000032720	#f99f02
X000030657	#f99f02
X000023813	#f99f02
X000032058	#f99f02
X000030660	#f99f02
X000023814	#f99f02
X000028853	#f99f02
X000032052	#f99f02
X000030656	#f99f02
X000030652	#f99f02
X000023807	#f99f02
X000009690	#f99f02
X000030648	#f99f02
X000009679	#f99f02
X000028760	#f99f02
X000028761	#f99f02
X000028758	#f99f02
X000032018	#f99f02
X000028755	#f99f02
X000032019	#f99f02
X000023803	#f99f02
X000032278	#f99f02
X000009684	#f99f02
X000009686	#f99f02
X000030644	#f99f02
X000032681	#f99f02
X000009676	#f99f02
X000032042	#f99f02
X000032032	#f99f02
X000028879	#f99f02
X000009694	#f99f02
X000032059	#f99f02
X000032050	#f99f02
X000032033	#f99f02
X000019349	#f99f02
X000030645	#f99f02
X000032046	#f99f02
X000032640	#f99f02
X000032639	#f99f02
X000032648	#f99f02
X000032043	#f99f02
X000032654	#f99f02
X000032723	#f99f02
X000028870	#f99f02
X000028872	#f99f02
X000032655	#f99f02
X000019354	#f99f02
X000009662	#f99f02
X000019221	#f99f02
X000008788	#f99f02
X000008790	#f99f02
X000009656	#f99f02
X000028856	#f99f02
X000028866	#f99f02
X000028865	#f99f02
X000028858	#f99f02
X000028841	#f99f02
X000019356	#f99f02
X000028821	#f99f02
X000028839	#f99f02
X000032037	#f99f02
X000032036	#f99f02
X000032040	#f99f02
X000028847	#f99f02
X000032039	#f99f02
X000028864	#f99f02
X000028863	#f99f02
X000023796	#f99f02
X000023799	#f99f02
X000028812	#f99f02
X000028855	#f99f02
X000019374	#f99f02
X000028881	#f99f02
X000028819	#f99f02
X000028880	#f99f02
X000019363	#f99f02
X000032069	#f99f02
X000032068	#f99f02
X000028884	#f99f02
X000028883	#f99f02
X000009657	#f99f02
X000028833	#f99f02
X000028834	#f99f02
X000028815	#f99f02
X000028809	#f99f02
X000028813	#f99f02
X000028820	#f99f02
X000020892	#f99f02
X000009659	#f99f02
X000005362	#020af9
X000008839	#020af9
X000033049	#020af9
X000033055	#020af9
X000033054	#020af9
X000005326	#020af9
X000033050	#020af9
X000008851	#020af9
X000020588	#020af9
X000030421	#020af9
X000032435	#020af9
X000032443	#020af9
X000030479	#020af9
X000008421	#020af9
X000023290	#020af9
X000032450	#020af9
X000032449	#020af9
X000019051	#020af9
X000019052	#020af9
X000019062	#020af9
X000019056	#020af9
X000019059	#020af9
X000019055	#020af9
X000023302	#020af9
X000032451	#020af9
X000032454	#020af9
X000032441	#020af9
X000032438	#020af9
X000030443	#020af9
X000032442	#020af9
X000030480	#020af9
X000032427	#020af9
X000032431	#020af9
X000032447	#020af9
X000032446	#020af9
X000032433	#020af9
X000030437	#020af9
X000030436	#020af9
X000030438	#020af9
X000032398	#020af9
X000030423	#020af9
X000030433	#020af9
X000030432	#020af9
X000030439	#020af9
X000030427	#020af9
X000030440	#020af9
X000030430	#020af9
X000023303	#020af9
X000030429	#020af9
X000030425	#020af9
X000032412	#020af9
X000032405	#020af9
X000019484	#020af9
X000019477	#020af9
X000019478	#020af9
X000019480	#020af9
X000019483	#020af9
X000008467	#020af9
X000032406	#020af9
X000032419	#020af9
X000032423	#020af9
X000032695	#020af9
X000032694	#020af9
X000032418	#020af9
X000030466	#020af9
X000030463	#020af9
X000030465	#020af9
X000030464	#020af9
X000032402	#020af9
X000030452	#020af9
X000030446	#020af9
X000032401	#020af9
X000030469	#020af9
X000023292	#020af9
X000030462	#020af9
X000008428	#020af9
X000030455	#020af9
X000032417	#020af9
X000008425	#020af9
X000019474	#020af9
X000023289	#020af9
X000019608	#020af9
X000019609	#020af9
X000019610	#020af9
X000019058	#020af9
X000019475	#020af9
X000019472	#020af9
X000019465	#020af9
X000004896	#020af9
X000004952	#020af9
X000004964	#020af9
X000004960	#020af9
X000028915	#020af9
X000028917	#020af9
X000019470	#020af9
X000028914	#020af9
X000028913	#020af9
X000028921	#020af9
X000028920	#020af9
X000028922	#020af9
X000028923	#020af9
X000019606	#020af9
X000019607	#020af9
X000019603	#020af9
X000023300	#020af9
X000023297	#020af9
X000023268	#020af9
X000030401	#020af9
X000030400	#020af9
X000030402	#020af9
X000030407	#020af9
X000023277	#020af9
X000023269	#020af9
X000030411	#020af9
X000030413	#020af9
X000023266	#020af9
X000008419	#020af9
X000006199	#020af9
X000033044	#020af9
X000008411	#020af9
X000000951	#020af9
X000008410	#020af9
X000008407	#020af9
X000008413	#020af9
X000008408	#020af9
X000030419	#020af9
X000032391	#020af9
X000030420	#020af9
X000032397	#020af9
X000008469	#020af9
X000023237	#020af9
X000032923	#020af9
X000008318	#020af9
X000008319	#020af9
X000008316	#020af9
X000008325	#020af9
X000023245	#020af9
X000023240	#020af9
X000023242	#020af9
X000023267	#020af9
X000023278	#020af9
X000023264	#020af9
X000001026	#020af9
X000008848	#020af9
X000008854	#000000
X000008849	#020af9
X000001030	#020af9
X000021204	#020af9
X000021197	#020af9
X000002885	#020af9
X000033119	#020af9
X000013556	#020af9
X000013555	#020af9
X000025865	#020af9
X000025862	#020af9
X000013569	#020af9
X000002984	#020af9
X000025855	#020af9
X000025859	#020af9
X000002932	#020af9
X000013541	#020af9
X000003012	#020af9
X000013549	#020af9
X000013540	#020af9
X000002976	#020af9
X000013548	#020af9
X000005478	#020af9
X000020422	#000000
X000019502	#000000
X000020039	#000000
X000020040	#000000
X000029258	#000000
X000029259	#000000
X000029262	#000000
X000032805	#000000
X000029260	#000000
X000020037	#000000
X000020041	#000000
X000005044	#000000
X000019404	#000000
X000019388	#000000
X000025473	#000000
X000020421	#000000
X000020054	#000000
X000008114	#000000
X000015498	#000000
X000015499	#000000
X000001093	#000000
X000003594	#000000
X000018237	#000000
X000023579	#000000
X000009260	#000000
X000016590	#000000
X000002849	#000000
X000030270	#000000
X000030269	#000000
X000007208	#000000
X000017327	#000000
X000022470	#000000
X000009948	#000000
X000023894	#000000
X000023895	#000000
X000006959	#f99f02
X000027779	#000000
X000009574	#000000
X000002411	#d002f9
X000024043	#000000
X000024051	#000000
X000024054	#000000
X000017306	#000000
X000001576	#000000
X000010465	#000000
X000033258	#000000
X000009207	#000000
X000009248	#000000
X000009255	#000000
X000027792	#000000
X000017325	#000000
X000027795	#000000
X000027757	#000000
X000017333	#000000
X000032964	#000000
X000027759	#000000
X000027756	#000000
X000032609	#000000
X000033347	#000000
X000031716	#000000
X000033157	#000000
X000032911	#000000
X000032888	#000000
X000032608	#000000
X000033325	#000000
X000032606	#000000
X000000587	#000000
X000009600	#000000
X000009602	#000000
X000001527	#000000
X000009286	#000000
X000023557	#000000
X000023559	#000000
X000009617	#000000
X000009613	#000000
X000023785	#000000
X000023783	#000000
X000023784	#000000
X000009616	#000000
X000009205	#000000
X000007230	#000000
X000009567	#000000
X000023622	#000000
X000027813	#d002f9
X000009397	#d002f9
X000030601	#d002f9
X000030613	#d002f9
X000017366	#d002f9
X000017362	#d002f9
X000023722	#d002f9
X000030607	#d002f9
X000023767	#d002f9
X000023764	#d002f9
X000023714	#d002f9
X000017361	#d002f9
X000033339	#d002f9
X000030597	#d002f9
X000030603	#d002f9
X000023710	#d002f9
X000027789	#d002f9
X000032489	#d002f9
X000017378	#d002f9
X000027808	#d002f9
X000023718	#d002f9
X000023707	#d002f9
X000001553	#d002f9
X000023719	#d002f9
X000027815	#d002f9
X000032504	#d002f9
X000023723	#d002f9
X000009407	#d002f9
X000032500	#d002f9
X000009572	#d002f9
X000027769	#d002f9
X000027810	#d002f9
X000030592	#d002f9
X000023694	#d002f9
X000030596	#d002f9
X000009396	#d002f9
X000032966	#d002f9
X000032930	#d002f9
X000033181	#d002f9
X000009294	#d002f9
X000033196	#d002f9
X000009545	#d002f9
X000009584	#d002f9
X000030638	#d002f9
X000009587	#d002f9
X000023753	#d002f9
X000023772	#d002f9
X000023773	#d002f9
X000023774	#d002f9
X000030593	#d002f9
X000023704	#d002f9
X000032499	#d002f9
X000009400	#d002f9
X000023665	#d002f9
X000023664	#d002f9
X000009394	#d002f9
X000030628	#d002f9
X000030627	#d002f9
X000023678	#d002f9
X000023681	#d002f9
X000023677	#d002f9
X000032501	#d002f9
X000023769	#d002f9
X000023768	#d002f9
X000009593	#d002f9
X000023771	#d002f9
X000033138	#d002f9
X000009524	#d002f9
X000004319	#d002f9
X000027766	#d002f9
X000027768	#d002f9
X000031713	#d002f9
X000027811	#d002f9
X000031712	#d002f9
X000027772	#d002f9
X000031708	#d002f9
X000023688	#d002f9
X000023735	#d002f9
X000023736	#d002f9
X000009393	#d002f9
X000001519	#d002f9
X000009503	#d002f9
X000023775	#d002f9
X000023777	#d002f9
X000030639	#d002f9
X000009579	#d002f9
X000009443	#d002f9
X000023734	#d002f9
X000007268	#d002f9
X000000588	#d002f9
X000007358	#d002f9
X000030258	#d002f9
X000030255	#d002f9
X000000582	#d002f9
X000030261	#d002f9
X000030260	#d002f9
X000022589	#d002f9
X000022588	#d002f9
X000022595	#d002f9
X000022597	#d002f9
X000007204	#d002f9
X000023632	#d002f9
X000030585	#d002f9
X000009508	#d002f9
X000033053	#d002f9
X000032819	#d002f9
X000030590	#d002f9
X000030635	#d002f9
X000023750	#d002f9
X000023749	#d002f9
X000030636	#d002f9
X000030641	#d002f9
X000009507	#d002f9
X000000580	#d002f9
X000023759	#d002f9
X000032937	#d002f9
X000023703	#d002f9
X000023601	#d002f9
X000023603	#d002f9
X000023599	#d002f9
X000023606	#d002f9
X000017363	#d002f9
X000023600	#d002f9
X000033259	#d002f9
X000001529	#d002f9
X000009338	#d002f9
X000030630	#d002f9
X000030629	#d002f9
X000030634	#d002f9
X000033230	#d002f9
X000004331	#d002f9
X000004313	#d002f9
X000004704	#d002f9
X000023758	#d002f9
X000023757	#d002f9
X000023755	#d002f9
X000023640	#d002f9
X000032506	#d002f9
X000032505	#d002f9
X000032508	#d002f9
X000033210	#d002f9
X000023613	#d002f9
X000023619	#d002f9
X000017316	#000000
X000017298	#000000
X000032994	#000000
X000017300	#000000
X000032481	#d002f9
X000023615	#d002f9
X000032483	#d002f9
X000023685	#d002f9
X000009458	#d002f9
X000023610	#d002f9
X000032487	#d002f9
X000032484	#d002f9
X000006072	#000000
X000013113	#000000
X000018523	#000000
X000018424	#fc8dac
X000006808	#fc8dac
X000013092	#fc8dac
X000007003	#fc8dac
X000006804	#fc8dac
X000022341	#fc8dac
X000022340	#fc8dac
X000022426	#fc8dac
X000022425	#fc8dac
X000022427	#fc8dac
X000006917	#fc8dac
X000022489	#fc8dac
X000007050	#fc8dac
X000033357	#fc8dac
X000006805	#fc8dac
X000006800	#fc8dac
X000006813	#fc8dac
X000007103	#fc8dac
X000007057	#fc8dac
X000007069	#fc8dac
X000007051	#fc8dac
X000022480	#fc8dac
X000022478	#fc8dac
X000022468	#fc8dac
X000030159	#fc8dac
X000032330	#fc8dac
X000032334	#fc8dac
X000022501	#fc8dac
X000006914	#fc8dac
X000022454	#fc8dac
X000022457	#fc8dac
X000007089	#000000
X000030155	#000000
X000030153	#000000
X000006918	#fc8dac
X000022487	#fc8dac
X000022484	#fc8dac
X000006803	#000000
X000030164	#000000
X000022339	#000000
X000030152	#000000
X000030156	#000000
X000030157	#000000
X000022452	#000000
X000030154	#000000
X000013082	#006c82
X000006721	#82005b
X000020340	#82005b
X000020337	#82005b
X000020338	#82005b
X000032824	#82005b
X000006720	#82005b
X000006731	#82005b
X000006723	#82005b
X000006724	#82005b
X000002407	#000000
X000012777	#000000
X000017374	#000000
X000000589	#000000
X000016580	#000000
X000016578	#000000
X000000595	#000000
X000017373	#000000
X000030273	#000000
X000022408	#000000
X000006926	#000000
X000022504	#000000
X000006827	#000000
X000007333	#000000
X000007316	#000000
X000007218	#000000
X000000575	#000000
X000000619	#000000
X000000724	#000000
X000007315	#000000
X000009214	#000000
X000000658	#82005b
X000000603	#000000
X000007382	#000000
X000007385	#000000
X000000636	#000000
X000007391	#000000
X000007390	#000000
X000007397	#000000
X000000653	#000000
X000000623	#000000
X000032372	#000000
X000032374	#000000
X000030249	#000000
X000030254	#000000
X000032373	#000000
X000000455	#000000
X000022617	#000000
X000022621	#000000
X000007266	#000000
X000007263	#000000
X000007265	#000000
X000000651	#000000
X000007260	#000000
X000000574	#000000
X000007238	#000000
X000007017	#000000
X000007019	#000000
X000007025	#000000
X000012956	#000000
X000007018	#000000
X000012919	#000000
X000022635	#000000
X000022636	#000000
X000022633	#000000
X000007368	#000000
X000007373	#000000
X000007367	#000000
X000032788	#000000
X000006629	#000000
X000021303	#000000
X000022638	#000000
X000033133	#000000
X000017320	#000000
X000007371	#000000
X000022634	#000000
X000013012	#006c82
X000013031	#006c82
X000032818	#006c82
X000032811	#006c82
X000025654	#006c82
X000025656	#006c82
X000032816	#006c82
X000005416	#000000
X000021306	#000000
X000007366	#000000
X000033245	#000000
X000022620	#000000
X000022581	#000000
X000007267	#000000
X000005412	#000000
X000033130	#000000
X000007255	#000000
X000007256	#000000
X000007178	#000000
X000018210	#000000
X000008108	#000000
X000031328	#f99f02
X000012128	#f99f02
X000021085	#000000
X000001440	#f99f02
X000027469	#f99f02
X000027470	#f99f02
X000008603	#000000
X000008987	#f99f02
X000023039	#000000
X000023037	#000000
X000005164	#000000
X000023506	#000000
X000023508	#000000
X000012459	#000000
X000025486	#000000
X000031062	#000000
X000031061	#000000
X000007170	#000000
X000007165	#000000
X000027516	#f99f02
X000021019	#f99f02
X000021027	#f99f02
X000003773	#f99f02
X000012295	#000000
X000025097	#f99f02
X000027436	#000000
X000027435	#000000
X000016533	#000000
X000016538	#000000
X000016556	#000000
X000012651	#000000
X000016534	#f99f02
X000027570	#f99f02
X000027572	#f99f02
X000033111	#f99f02
X000033013	#f99f02
X000025237	#f99f02
X000025236	#f99f02
X000012643	#f99f02
X000025452	#f99f02
X000025455	#f99f02
X000025240	#f99f02
X000025488	#f99f02
X000016541	#f99f02
X000012646	#000000
X000012471	#000000
X000030265	#f9bf01
X000030267	#f9bf01
X000030569	#f9bf01
X000010053	#f9bf01
X000009346	#f9bf01
X000032471	#f9bf01
X000030575	#f9bf01
X000032468	#f9bf01
X000023639	#f9bf01
X000009477	#000000
X000009474	#000000
X000032475	#f9bf01
X000032477	#f9bf01
X000023585	#f9bf01
X000023589	#f9bf01
X000032480	#f9bf01
X000032479	#f9bf01
X000032460	#000000
X000032462	#000000
X000030571	#000000
X000030567	#f9bf01
X000030566	#f9bf01
X000007303	#f9bf01
X000006911	#f9bf01
X000007206	#f9bf01
X000032375	#f9bf01
X000030264	#f9bf01
X000032376	#f9bf01
X000012209	#000000
X000012208	#000000
X000012206	#000000
X000012227	#000000
X000012229	#000000
X000007302	#000000
X000007335	#000000
X000007341	#000000
X000007339	#000000
X000002399	#000000
X000022606	#f9bf01
X000007323	#f9bf01
X000022605	#f9bf01
X000022603	#f9bf01
X000022623	#f9bf01
X000022624	#f9bf01
X000007320	#f9bf01
X000030278	#f9bf01
X000030276	#f9bf01
X000030277	#f9bf01
X000030275	#f9bf01
X000007284	#f9bf01
X000007283	#f9bf01
X000007286	#f9bf01
X000006937	#f9bf01
X000007319	#f9bf01
X000007243	#f9bf01
X000033022	#f9bf01
X000032886	#f9bf01
X000007325	#f9bf01
X000022626	#f9bf01
X000022627	#f9bf01
X000022598	#f9bf01
X000022599	#f9bf01
X000007251	#f9bf01
X000012223	#f9bf01
X000012226	#f9bf01
X000012219	#f9bf01
X000012220	#f9bf01
X000012221	#f9bf01
X000012214	#f9bf01
X000012235	#000000
X000012215	#f9bf01
X000002413	#f9bf01
X000012213	#f9bf01
X000004358	#f99f02
X000012458	#f99f02
X000025238	#f99f02
X000012466	#f99f02
X000012465	#f99f02
X000012514	#f99f02
X000025243	#f99f02
X000025250	#f99f02
X000025277	#f99f02
X000025286	#f99f02
X000025291	#f99f02
X000025292	#f99f02
X000025293	#f99f02
X000025290	#f99f02
X000025273	#f99f02
X000012289	#f99f02
X000025085	#f99f02
X000025099	#000000
X000025103	#f99f02
X000025086	#f99f02
X000012661	#000000
X000020703	#000000
X000017018	#f99f02
X000012521	#f99f02
X000025490	#f99f02
X000012515	#f99f02
X000020645	#f99f02
X000000680	#000000
X000007083	#000000
X000010270	#000000
X000018199	#000000
X000018555	#000000
X000010361	#000000
X000018955	#000000
X000018943	#000000
X000018961	#000000
X000018954	#000000
X000033246	#000000
X000018857	#000000
X000033253	#000000
X000018231	#000000
X000028274	#000000
X000007092	#000000
X000029526	#000000
X000029528	#000000
X000029527	#000000
X000008800	#000000
X000008834	#000000
X000020445	#000000
X000019377	#000000
X000020711	#f99f02
X000017224	#f99f02
X000017241	#f99f02
X000014117	#f99f02
X000007942	#f99f02
X000020021	#f99f02
X000013755	#000000
X000014109	#000000
X000007737	#000000
X000014114	#000000
X000007006	#000000
X000025014	#000000
X000025015	#000000
X000004136	#000000
X000031327	#01f9f9
X000015686	#01f9f9
X000015817	#01f9f9
X000026942	#01f9f9
X000026941	#01f9f9
X000026943	#01f9f9
X000015688	#01f9f9
X000024958	#01f9f9
X000030928	#01f9f9
X000030926	#01f9f9
X000030929	#01f9f9
X000012769	#01f9f9
X000014957	#01f9f9
X000014967	#01f9f9
X000026386	#01f9f9
X000026387	#01f9f9
X000014953	#01f9f9
X000014962	#01f9f9
X000011705	#01f9f9
X000024942	#01f9f9
X000024907	#01f9f9
X000024914	#01f9f9
X000011700	#01f9f9
X000024911	#01f9f9
X000016823	#01f9f9
X000024927	#01f9f9
X000024956	#01f9f9
X000030930	#01f9f9
X000030932	#01f9f9
X000016637	#01f9f9
X000030935	#01f9f9
X000016649	#01f9f9
X000016810	#01f9f9
X000032981	#01f9f9
X000015911	#01f9f9
X000011708	#01f9f9
X000011676	#01f9f9
X000015854	#01f9f9
X000011945	#01f9f9
X000015921	#01f9f9
X000014938	#01f9f9
X000026975	#01f9f9
X000026978	#01f9f9
X000014946	#01f9f9
X000026976	#01f9f9
X000015933	#01f9f9
X000015916	#01f9f9
X000026509	#01f9f9
X000026508	#01f9f9
X000024941	#01f9f9
X000015908	#01f9f9
X000014940	#01f9f9
X000026385	#01f9f9
X000026383	#01f9f9
X000014937	#01f9f9
X000014693	#01f9f9
X000014695	#01f9f9
X000007088	#f99f02
X000018871	#000000
X000028589	#000000
X000028588	#000000
X000018926	#000000
X000010147	#000000
X000031828	#000000
X000031830	#000000
X000028275	#000000
X000031826	#000000
X000031823	#000000
X000004671	#000000
X000008235	#000000
X000008172	#000000
X000013746	#000000
X000026381	#f99f02
X000015680	#f99f02
X000015675	#f99f02
X000026829	#f99f02
X000026830	#f99f02
X000015672	#f99f02
X000032972	#f99f02
X000015677	#f99f02
X000015674	#f99f02
X000027514	#f99f02
X000027515	#f99f02
X000026380	#f99f02
X000023208	#000000
X000008740	#000000
X000005322	#000000
X000017296	#000000
X000027753	#000000
X000027755	#000000
X000027754	#000000
X000014241	#000000
X000023206	#000000
X000033206	#000000
X000000847	#000000
X000007766	#000000
X000014166	#f99f02
X000026964	#f99f02
X000026963	#f99f02
X000026980	#f99f02
X000026984	#f99f02
X000003172	#000000
X000023519	#000000
X000023520	#000000
X000006810	#000000
X000020400	#000000
X000011986	#00c61a
X000011995	#00c61a
X000027460	#00c61a
X000027452	#00c61a
X000027459	#00c61a
X000027462	#00c61a
X000011973	#00c61a
X000016611	#00c61a
X000016610	#00c61a
X000016733	#00c61a
X000016739	#00c61a
X000005090	#00c61a
X000032755	#00c61a
X000016625	#00c61a
X000016825	#00c61a
X000016621	#00c61a
X000016626	#00c61a
X000027447	#00c61a
X000012058	#00c61a
X000027445	#00c61a
X000011992	#00c61a
X000024926	#00c61a
X000024919	#00c61a
X000024959	#00c61a
X000024962	#00c61a
X000024920	#00c61a
X000024924	#00c61a
X000016650	#00c61a
X000004016	#00c61a
X000024918	#00c61a
X000024949	#00c61a
X000024953	#00c61a
X000016813	#00c61a
X000024936	#00c61a
X000012006	#00c61a
X000027493	#00c61a
X000004003	#00c61a
X000016646	#00c61a
X000027495	#00c61a
X000027500	#00c61a
X000024940	#00c61a
X000024937	#00c61a
X000024947	#00c61a
X000024934	#00c61a
X000014945	#00c61a
X000016829	#00c61a
X000011980	#00c61a
X000011977	#00c61a
X000024905	#00c61a
X000012005	#00c61a
X000027498	#00c61a
X000011982	#00c61a
X000002194	#00c61a
X000032980	#00c61a
X000033004	#00c61a
X000002163	#00c61a
X000031653	#00c61a
X000031652	#00c61a
X000023501	#00c61a
X000023502	#00c61a
X000023515	#00c61a
X000009018	#00c61a
X000020053	#00c61a
X000009020	#00c61a
X000009022	#00c61a
X000022849	#00c61a
X000022848	#00c61a
X000023512	#00c61a
X000020061	#000000
X000009021	#00c61a
X000003944	#00c61a
X000032982	#00c61a
X000019659	#00c61a
X000019661	#00c61a
X000019662	#00c61a
X000005006	#00c61a
X000019658	#00c61a
X000005022	#00c61a
X000032970	#00c61a
X000002909	#00c61a
X000023180	#00c61a
X000023182	#00c61a
X000011859	#000000
X000011876	#000000
X000031134	#000000
X000031135	#000000
X000025980	#000000
X000022345	#f99f02
X000018209	#000000
X000006801	#000000
X000018195	#f99f02
X000022343	#000000
X000022344	#000000
X000022346	#000000
X000025464	#f99f02
X000027402	#f99f02
X000025463	#f99f02
X000016487	#000000
X000016489	#000000
X000016478	#000000
X000004222	#000000
X000012457	#000000
X000012655	#f99f02
X000025467	#000000
X000025472	#000000
X000012647	#000000
X000012306	#000000
X000027411	#000000
X000016496	#000000
X000016499	#000000
X000016500	#000000
X000012293	#000000
X000027410	#000000
X000002261	#000000
X000016460	#000000
X000025479	#000000
X000025480	#000000
X000025458	#000000
X000016456	#000000
X000016407	#000000
X000016412	#000000
X000016394	#000000
X000004202	#000000
X000025456	#000000
X000025461	#000000
X000025476	#000000
X000025477	#000000
X000025478	#000000
X000012637	#000000
X000012657	#000000
X000012650	#000000
X000025466	#000000
X000027398	#f99f02
X000025138	#f99f02
X000012307	#f99f02
X000012305	#f99f02
X000012656	#f99f02
X000025207	#f99f02
X000012319	#000000
X000025113	#000000
X000030962	#000000
X000025109	#000000
X000030966	#000000
X000025108	#000000
X000025107	#000000
X000025115	#000000
X000025119	#000000
X000025120	#000000
X000003813	#f99f02
X000002482	#000000
X000025104	#000000
X000025105	#000000
X000024966	#000000
X000024965	#000000
X000012318	#f99f02
X000012315	#f99f02
X000025206	#f99f02
X000012418	#000000
X000012422	#000000
X000012414	#f99f02
X000012419	#000000
X000016366	#000000
X000027391	#000000
X000016389	#000000
X000020787	#000000
X000020785	#000000
X000009888	#000000
X000012131	#000000
X000016709	#000000
X000017249	#f99f02
X000017251	#f99f02
X000003950	#f99f02
X000022136	#f99f02
X000022133	#f99f02
X000032793	#f99f02
X000003947	#f99f02
X000004116	#f99f02
X000004137	#f99f02
X000020301	#f99f02
X000033145	#f99f02
X000005144	#f99f02
X000020297	#f99f02
X000029362	#f99f02
X000029360	#f99f02
X000029361	#f99f02
X000020305	#f99f02
X000029413	#000000
X000019435	#f99f02
X000009707	#f99f02
X000009719	#f99f02
X000009817	#f99f02
X000009811	#f99f02
X000001361	#f99f02
X000009835	#f99f02
X000003793	#f99f02
X000009852	#f99f02
X000028893	#f99f02
X000028896	#f99f02
X000009698	#f99f02
X000009700	#f99f02
X000009629	#f99f02
X000009630	#f99f02
X000009701	#f99f02
X000028895	#f99f02
X000019396	#f99f02
X000019389	#f99f02
X000028897	#f99f02
X000009855	#f99f02
X000009628	#f99f02
X000023854	#f99f02
X000023855	#f99f02
X000023856	#f99f02
X000009856	#f99f02
X000009705	#f99f02
X000009854	#f99f02
X000023857	#f99f02
X000009864	#f99f02
X000023858	#f99f02
X000019417	#f99f02
X000028898	#f99f02
X000009819	#f99f02
X000009643	#f99f02
X000033183	#f99f02
X000008091	#f99f02
X000027853	#000000
X000008552	#000000
X000001079	#000000
X000032803	#000000
X000005333	#000000
X000009315	#000000
X000010653	#000000
X000009500	#000000
X000009499	#000000
X000017454	#000000
X000031730	#000000
X000027854	#000000
X000027805	#000000
X000027804	#000000
X000031729	#000000
X000027855	#000000
X000022415	#000000
X000021271	#000000
X000007241	#000000
X000007207	#000000
X000022409	#000000
X000028586	#000000
X000000501	#000000
X000022609	#000000
X000000650	#000000
X000021268	#000000
X000009331	#000000
X000000693	#000000
X000005123	#000000
X000008989	#f99f02
X000008992	#f99f02
X000020488	#f99f02
X000029379	#000000
X000029377	#000000
X000032841	#000000
X000019397	#000000
X000021270	#000000
X000007219	#000000
X000014250	#000000
X000019418	#000000
X000001185	#000000
X000029808	#000000
X000029807	#000000
X000029395	#000000
X000032173	#000000
X000032172	#000000
X000029400	#000000
X000029399	#000000
X000029408	#000000
X000023042	#000000
X000009115	#000000
X000029405	#000000
X000029410	#000000
X000032177	#000000
X000032174	#000000
X000029429	#000000
X000029430	#000000
X000029431	#000000
X000029393	#000000
X000025091	#f99f02
X000025092	#f99f02
X000025090	#f99f02
X000025093	#f99f02
X000012301	#f99f02
X000025089	#f99f02
X000025094	#f99f02
X000012659	#000000
X000011884	#f99f02
X000013061	#000000
X000033005	#000000
X000012025	#01f9f9
X000020049	#000000
X000001403	#000000
X000020051	#f90101
X000005117	#000000
X000001413	#000000
X000020259	#000000
X000020250	#000000
X000020258	#000000
X000020023	#000000
X000020424	#000000
X000007727	#000000
X000020456	#000000
X000020431	#000000
X000022912	#000000
X000023164	#000000
X000023158	#000000
X000023161	#000000
X000015465	#000000
X000015479	#000000
X000026736	#000000
X000026737	#000000
X000007675	#000000
X000013504	#000000
X000014107	#000000
X000013984	#000000
X000023111	#000000
X000023109	#000000
X000023112	#000000
X000023110	#000000
X000023117	#000000
X000023115	#000000
X000030388	#000000
X000030391	#000000
X000030384	#000000
X000030390	#000000
X000030385	#000000
X000008048	#000000
X000008015	#000000
X000013306	#000000
X000020392	#000000
X000025780	#000000
X000025779	#000000
X000007354	#000000
X000019241	#000000
X000019242	#000000
X000032612	#f90101
X000028361	#f90101
X000028366	#f90101
X000028344	#f90101
X000028331	#f90101
X000028339	#f90101
X000031854	#f90101
X000031853	#f90101
X000031849	#f90101
X000031850	#f90101
X000031852	#f90101
X000028342	#f90101
X000028334	#f90101
X000018562	#f90101
X000028372	#f90101
X000018566	#f90101
X000028347	#f90101
X000028349	#f90101
X000028350	#f90101
X000028348	#f90101
X000031861	#f90101
X000031860	#f90101
X000018572	#f90101
X000018570	#f90101
X000018563	#f90101
X000033092	#f90101
X000033090	#f90101
X000033091	#f90101
X000010352	#f90101
X000028371	#f90101
X000028380	#f90101
X000028379	#f90101
X000028356	#f90101
X000028354	#f90101
X000028337	#f90101
X000028332	#f90101
X000028343	#f90101
X000028357	#f90101
X000010367	#f90101
X000028353	#f90101
X000032614	#f90101
X000028352	#f90101
X000028359	#f90101
X000033108	#f90101
X000033077	#f90101
X000028345	#f90101
X000033021	#f90101
X000010369	#f90101
X000031862	#f90101
X000031867	#f90101
X000032615	#f90101
X000032617	#f90101
X000032616	#f90101
X000022469	#000000
X000007086	#000000
X000010887	#000000
X000028593	#000000
X000021007	#000000
X000021010	#000000
X000013220	#000000
X000001077	#000000
X000019410	#000000
X000009057	#000000
X000023061	#000000
X000023060	#000000
X000030380	#000000
X000030381	#000000
X000033126	#b98dfc
X000014161	#b98dfc
X000014171	#b98dfc
X000025974	#000000
X000025973	#000000
X000023129	#000000
X000008082	#000000
X000023130	#000000
X000013178	#000000
X000008074	#000000
X000033030	#b98dfc
X000033120	#b98dfc
X000033151	#b98dfc
X000032931	#b98dfc
X000033134	#b98dfc
X000026791	#b98dfc
X000013295	#b98dfc
X000033017	#b98dfc
X000015604	#b98dfc
X000013734	#b98dfc
X000023326	#b98dfc
X000023322	#b98dfc
X000008503	#b98dfc
X000023325	#b98dfc
X000008502	#b98dfc
X000008506	#b98dfc
X000023323	#b98dfc
X000015333	#000000
X000015026	#000000
X000003675	#000000
X000026466	#b98dfc
X000026468	#000000
X000015030	#b98dfc
X000015033	#000000
X000026467	#000000
X000026758	#000000
X000007946	#000000
X000002980	#000000
X000009090	#000000
X000001346	#000000
X000029303	#000000
X000008844	#000000
X000028904	#000000
X000028902	#000000
X000005093	#000000
X000029306	#000000
X000007962	#000000
X000028739	#000000
X000028738	#000000
X000008203	#000000
