DATASET_COLORSTRIP
#lines starting with a hash are comments and ignored during parsing
#select the separator which is used to delimit the data below (TAB,SPACE or COMMA).This separator must be used throught this file (except in the SEPARATOR line, which uses space).

SEPARATOR TAB
#SEPARATOR SPACE
#SEPARATOR COMMA

#label is used in the legend table (can be changed later)
DATASET_LABEL	color_strip1

#dataset color (can be changed later)
COLOR	#ff0000

#optional settings

#all other optional settings can be set or changed later in the web interface (under 'Datasets' tab)
COLOR_BRANCHES	1
#maximum width
STRIP_WIDTH	25

#left margin, used to increase/decrease the spacing to the next dataset. Can be negative, causing datasets to overlap.
MARGIN	0

#border width; if set above 0, a black border of specified width (in pixels) will be drawn around the color strip 
BORDER_WIDTH	1
BORDER_COLOR	#000

#show internal values; if set, values associated to internal nodes will be displayed even if these nodes are not collapsed. It could cause overlapping in the dataset display.
SHOW_INTERNAL	0

#In colored strip charts, each ID is associated to a color. Color can be specified in hexadecimal, RGB or RGBA notation
#Internal tree nodes can be specified using IDs directly, or using the 'last common ancestor' method described in iTOL help pages
#Actual data follows after the "DATA" keyword

DATA
X000030030	#ffffff
X000021479	#ffffff
X000014902	#ffffff
X000021376	#ffffff
X000014903	#ffffff
X000010022	#ffffff
X000010004	#ffffff
X000015770	#ffffff
X000027043	#ffffff
X000027038	#ffffff
X000017047	#ffffff
X000031497	#ffffff
X000027113	#ffffff
X000027054	#ffffff
X000016047	#ffffff
X000031556	#ffffff
X000031557	#ffffff
X000032597	#ffffff
X000032601	#ffffff
X000031537	#ffffff
X000031538	#fcaf35
X000031500	#ffffff
X000026898	#fcaf35
X000026678	#ffffff
X000015748	#ffffff
X000015766	#ffffff
X000015942	#ffffff
X000015966	#ffffff
X000015969	#ffffff
X000016007	#ffffff
X000016018	#ffffff
X000016019	#ffffff
X000016011	#ffffff
X000031540	#ffffff
X000015948	#ffffff
X000015975	#ffffff
X000015943	#ffffff
X000033203	#ffffff
X000033097	#ffffff
X000033016	#ffffff
X000033121	#ffffff
X000015937	#ffffff
X000027023	#fcaf35
X000027025	#ffffff
X000027033	#ffffff
X000027055	#ffffff
X000031490	#ffffff
X000031502	#ffffff
X000031505	#ffffff
X000031509	#ffffff
X000015976	#ffffff
X000031486	#ffffff
X000031488	#ffffff
X000026651	#fcaf35
X000026655	#ffffff
X000032573	#ffffff
X000026660	#ffffff
X000026657	#ffffff
X000030039	#ffffff
X000021678	#ffffff
X000008357	#ffffff
X000030033	#ffffff
X000021683	#ffffff
X000030038	#ffffff
X000030037	#ffffff
X000026669	#ffffff
X000032575	#ffffff
X000011519	#ffffff
X000015277	#ffffff
X000015314	#ffffff
X000032718	#ffffff
X000032714	#ffffff
X000031476	#ffffff
X000031474	#ffffff
X000031472	#ffffff
X000015947	#ffffff
X000031480	#ffffff
X000031481	#ffffff
X000032991	#ffffff
X000026992	#ffffff
X000027010	#ffffff
X000031483	#ffffff
X000031482	#ffffff
X000032712	#ffffff
X000011562	#ffffff
X000011640	#ffffff
X000030907	#ffffff
X000030904	#ffffff
X000030908	#ffffff
X000024765	#ffffff
X000011648	#ffffff
X000024767	#ffffff
X000011639	#ffffff
X000011638	#ffffff
X000024778	#ffffff
X000024788	#ffffff
X000011645	#ffffff
X000027058	#ffffff
X000003465	#fcaf35
X000016255	#ffffff
X000027019	#ffffff
X000015217	#ffffff
X000016270	#ffffff
X000027056	#ffffff
X000016261	#ffffff
X000002195	#ffffff
X000033052	#ffffff
X000033178	#ffffff
X000033038	#ffffff
X000002170	#ffffff
X000032917	#ffffff
X000033032	#ffffff
X000006288	#ffffff
X000015955	#ffffff
X000011757	#ffffff
X000011768	#ffffff
X000011525	#ffffff
X000011599	#ffffff
X000011613	#ffffff
X000011618	#ffffff
X000033148	#ffffff
X000002220	#ffffff
X000027062	#ffffff
X000016726	#ffffff
X000026716	#ffffff
X000016051	#ffffff
X000026709	#ffffff
X000026690	#ffffff
X000026693	#ffffff
X000026692	#ffffff
X000026713	#ffffff
X000026718	#ffffff
X000026689	#ffffff
X000031401	#ffffff
X000031394	#ffffff
X000031397	#ffffff
X000031398	#ffffff
X000031400	#ffffff
X000026704	#ffffff
X000031478	#ffffff
X000032736	#ffffff
X000032739	#ffffff
X000031403	#ffffff
X000031405	#ffffff
X000011526	#ffffff
X000011523	#ffffff
X000031520	#ffffff
X000032590	#ffffff
X000032596	#ffffff
X000032595	#ffffff
X000032594	#ffffff
X000031438	#ffffff
X000026674	#ffffff
X000026644	#ffffff
X000015280	#ffffff
X000026647	#ffffff
X000031440	#ffffff
X000026646	#ffffff
X000032593	#ffffff
X000030943	#ffffff
X000025006	#ffffff
X000025007	#ffffff
X000012070	#ffffff
X000003999	#ffffff
X000016769	#ffffff
X000012069	#ffffff
X000030942	#ffffff
X000003759	#ffffff
X000027384	#ffffff
X000027383	#ffffff
X000033309	#ffffff
X000002151	#ffffff
X000033202	#ffffff
X000011747	#ffffff
X000011739	#ffffff
X000012078	#ffffff
X000011746	#ffffff
X000016764	#ffffff
X000011736	#ffffff
X000025518	#ffffff
X000025519	#ffffff
X000025516	#ffffff
X000012079	#ffffff
X000012074	#ffffff
X000016761	#ffffff
X000011741	#fcaf35
X000011737	#ffffff
X000025747	#ffffff
X000013176	#ffffff
X000015553	#ffffff
X000015549	#ffffff
X000015551	#ffffff
X000015548	#ffffff
X000015556	#ffffff
X000015555	#ffffff
X000011655	#ffffff
X000015974	#ffffff
X000027020	#fcaf35
X000031513	#ffffff
X000031525	#ffffff
X000031524	#ffffff
X000015276	#ffffff
X000026673	#ffffff
X000011533	#ffffff
X000026989	#ffffff
X000031530	#ffffff
X000031528	#ffffff
X000031529	#ffffff
X000027081	#ffffff
X000027085	#fcaf35
X000031535	#ffffff
X000031531	#ffffff
X000026671	#ffffff
X000026588	#ffffff
X000026587	#ffffff
X000026590	#ffffff
X000015205	#ffffff
X000033269	#ffffff
X000032877	#ffffff
X000026583	#ffffff
X000033351	#ffffff
X000032836	#ffffff
X000015203	#ffffff
X000026575	#ffffff
X000026578	#ffffff
X000026577	#ffffff
X000031357	#ffffff
X000026579	#ffffff
X000026581	#ffffff
X000026884	#fcaf35
X000026881	#ffffff
X000026908	#fcaf35
X000026904	#fcaf35
X000026905	#ffffff
X000015768	#ffffff
X000031541	#ffffff
X000026897	#ffffff
X000015775	#ffffff
X000015774	#ffffff
X000026888	#ffffff
X000026896	#ffffff
X000026899	#ffffff
X000016049	#ffffff
X000016021	#ffffff
X000016029	#ffffff
X000016031	#ffffff
X000016020	#ffffff
X000031356	#ffffff
X000015204	#ffffff
X000033147	#ffffff
X000027133	#ffffff
X000027125	#ffffff
X000026430	#ffffff
X000031258	#ffffff
X000026414	#ffffff
X000031257	#ffffff
X000027155	#ffffff
X000003536	#ffffff
X000031609	#ffffff
X000031604	#ffffff
X000032839	#fcaf35
X000033276	#fcaf35
X000031616	#fcaf35
X000031620	#fcaf35
X000031619	#ffffff
X000031626	#ffffff
X000027277	#ffffff
X000031628	#ffffff
X000032833	#ffffff
X000033209	#ffffff
X000032944	#fcaf35
X000031600	#ffffff
X000031602	#ffffff
X000015758	#fcaf35
X000015756	#ffffff
X000016190	#ffffff
X000027166	#ffffff
X000026530	#ffffff
X000026527	#ffffff
X000031579	#ffffff
X000031577	#ffffff
X000027181	#fcaf35
X000016128	#fcaf35
X000027177	#ffffff
X000016124	#ffffff
X000027176	#ffffff
X000016140	#fcaf35
X000016114	#ffffff
X000015747	#ffffff
X000027190	#ffffff
X000027191	#ffffff
X000003531	#ffffff
X000031582	#ffffff
X000027184	#ffffff
X000031583	#ffffff
X000032603	#ffffff
X000016112	#ffffff
X000027153	#ffffff
X000031573	#ffffff
X000026547	#ffffff
X000031576	#ffffff
X000032868	#ffffff
X000016186	#fcaf35
X000027275	#ffffff
X000027260	#ffffff
X000016188	#fcaf35
X000027239	#ffffff
X000027247	#fcaf35
X000027147	#ffffff
X000027143	#fcaf35
X000027144	#ffffff
X000027284	#ffffff
X000027287	#ffffff
X000027248	#ffffff
X000032602	#ffffff
X000027171	#fcaf35
X000027162	#fcaf35
X000027242	#ffffff
X000017254	#ffffff
X000017252	#ffffff
X000025748	#ffffff
X000031625	#ffffff
X000027281	#ffffff
X000027245	#ffffff
X000033057	#ffffff
X000016179	#ffffff
X000027126	#ffffff
X000031612	#ffffff
X000031615	#ffffff
X000004307	#ffffff
X000031289	#ffffff
X000031251	#ffffff
X000031250	#ffffff
X000032977	#ffffff
X000031308	#ffffff
X000031303	#ffffff
X000033191	#ffffff
X000032565	#ffffff
X000033219	#ffffff
X000033214	#ffffff
X000031280	#ffffff
X000031279	#ffffff
X000031272	#ffffff
X000033172	#ffffff
X000033317	#ffffff
X000033112	#ffffff
X000026441	#ffffff
X000033215	#ffffff
X000032568	#ffffff
X000032906	#ffffff
X000014970	#ffffff
X000026452	#ffffff
X000026571	#ffffff
X000015196	#ffffff
X000026524	#fcaf35
X000015186	#ffffff
X000026550	#ffffff
X000026552	#ffffff
X000026555	#ffffff
X000026556	#ffffff
X000026565	#ffffff
X000026562	#ffffff
X000026541	#ffffff
X000026545	#ffffff
X000031330	#ffffff
X000031336	#ffffff
X000026539	#ffffff
X000032561	#ffffff
X000031338	#ffffff
X000031287	#ffffff
X000032558	#ffffff
X000032557	#ffffff
X000031341	#ffffff
X000031339	#ffffff
X000015180	#ffffff
X000026566	#fcaf35
X000026570	#ffffff
X000026567	#ffffff
X000026424	#ffffff
X000031259	#fcaf35
X000014989	#ffffff
X000003521	#ffffff
X000031565	#ffffff
X000033071	#ffffff
X000031568	#ffffff
X000031558	#ffffff
X000031563	#ffffff
X000014969	#ffffff
X000026407	#ffffff
X000026410	#ffffff
X000026433	#ffffff
X000026434	#ffffff
X000031262	#ffffff
X000026447	#ffffff
X000026439	#ffffff
X000026437	#ffffff
X000026411	#ffffff
X000026413	#ffffff
X000031265	#ffffff
X000026426	#ffffff
X000026401	#ffffff
X000026396	#ffffff
X000026397	#ffffff
X000027128	#fcaf35
X000016101	#ffffff
X000016077	#ffffff
X000016076	#ffffff
X000027182	#ffffff
X000027114	#ffffff
X000027117	#ffffff
X000027115	#ffffff
X000016074	#fcaf35
X000027139	#ffffff
X000016066	#ffffff
X000027132	#ffffff
X000004171	#ffffff
X000027217	#ffffff
X000016123	#ffffff
X000016219	#ffffff
X000016133	#ffffff
X000016209	#ffffff
X000027252	#ffffff
X000027253	#fcaf35
X000016195	#ffffff
X000027073	#ffffff
X000031508	#ffffff
X000027071	#ffffff
X000031510	#ffffff
X000027053	#fcaf35
X000031464	#ffffff
X000024726	#ffffff
X000026876	#fcaf35
X000027000	#ffffff
X000031467	#ffffff
X000027074	#ffffff
X000027078	#ffffff
X000032759	#ffffff
X000031446	#ffffff
X000024729	#ffffff
X000031453	#ffffff
X000031455	#ffffff
X000031452	#ffffff
X000031450	#ffffff
X000024776	#ffffff
X000011753	#ffffff
X000011751	#ffffff
X000032588	#ffffff
X000024777	#ffffff
X000016757	#ffffff
X000031347	#ffffff
X000025202	#ffffff
X000031629	#ffffff
X000027601	#ffffff
X000027600	#ffffff
X000016284	#ffffff
X000027324	#ffffff
X000016287	#ffffff
X000016279	#ffffff
X000032796	#ffffff
X000016283	#ffffff
X000016282	#ffffff
X000027333	#ffffff
X000027337	#ffffff
X000016280	#ffffff
X000027327	#ffffff
X000027323	#ffffff
X000027328	#fcaf35
X000033188	#ffffff
X000015197	#ffffff
X000016300	#ffffff
X000016299	#ffffff
X000031631	#ffffff
X000015746	#ffffff
X000011561	#ffffff
X000016026	#ffffff
X000011563	#ffffff
