"oligonames2"
"B000008512"	"freshwater"
"B000014228"	"freshwater"
"B000014227"	"freshwater"
"B000008662"	"freshwater"
"B000008664"	"freshwater"
"B000000774"	"freshwater"
"B000003463"	"freshwater"
"B000005285"	"freshwater"
"B000021923"	"marine"
"B000020963"	"marine"
"B000005289"	"freshwater"
"B000000932"	"marine"
"B000014725"	"freshwater"
"B000031028"	"freshwater"
"B000031027"	"freshwater"
"B000014433"	"freshwater"
"B000014221"	"freshwater"
"B000004366"	"freshwater"
"B000004346"	"freshwater"
"B000004356"	"freshwater"
"B000014376"	"marine"
"B000014872"	"marine"
"B000026402"	"marine"
"B000026401"	"marine"
"B000014871"	"marine"
"B000004122"	"marine"
"B000014267"	"marine"
"B000026090"	"marine"
"B000026089"	"marine"
"B000014868"	"marine"
"B000000776"	"marine"
"B000014266"	"marine"
"B000026069"	"marine"
"B000026066"	"marine"
"B000014270"	"marine"
"B000026097"	"marine"
"B000026098"	"marine"
"B000004148"	"marine"
"B000014268"	"marine"
"B000026096"	"marine"
"B000014353"	"marine"
"B000026117"	"marine"
"B000014468"	"marine"
"B000014470"	"marine"
"B000014445"	"freshwater"
"B000026116"	"marine"
"B000014400"	"marine"
"B000026140"	"marine"
"B000026139"	"marine"
"B000014404"	"marine"
"B000014403"	"marine"
"B000004120"	"marine"
"B000026128"	"marine"
"B000008471"	"marine"
"B000008591"	"marine"
"B000008569"	"marine"
"B000008425"	"marine"
"B000008470"	"marine"
"B000000813"	"marine"
"B000000783"	"marine"
"B000008525"	"marine"
"B000008548"	"marine"
"B000008571"	"marine"
"B000008593"	"marine"
"B000000795"	"marine"
"B000022527"	"marine"
"B000022526"	"marine"
"B000022522"	"marine"
"B000008526"	"marine"
"B000008551"	"marine"
"B000022519"	"marine"
"B000008550"	"marine"
"B000008457"	"marine"
"B000022512"	"marine"
"B000008510"	"marine"
"B000008509"	"marine"
"B000008483"	"marine"
"B000022509"	"marine"
"B000008485"	"marine"
"B000022508"	"marine"
"B000008366"	"marine"
"B000000801"	"marine"
"B000008389"	"marine"
"B000008401"	"marine"
"B000008390"	"marine"
"B000008490"	"marine"
"B000008559"	"marine"
"B000022502"	"marine"
"B000022503"	"marine"
"B000008393"	"marine"
"B000008492"	"marine"
"B000008362"	"marine"
"B000008363"	"marine"
"B000008491"	"marine"
"B000008558"	"marine"
"B000000775"	"marine"
"B000000802"	"marine"
"B000010550"	"marine"
"B000008495"	"marine"
"B000000791"	"marine"
"B000000106"	"marine"
"B000004128"	"marine"
"B000010551"	"marine"
"B000010554"	"marine"
"B000008388"	"marine"
"B000000900"	"marine"
"B000008398"	"marine"
"B000008608"	"marine"
"B000008607"	"marine"
"B000008391"	"marine"
"B000008396"	"marine"
"B000008496"	"marine"
"B000008392"	"marine"
"B000000191"	"marine"
"B000008367"	"marine"
"B000022511"	"marine"
"B000003465"	"marine"
"B000022520"	"marine"
"B000008575"	"marine"
"B000000784"	"marine"
"B000008426"	"marine"
"B000008422"	"marine"
"B000008423"	"marine"
"B000008456"	"marine"
"B000008527"	"marine"
"B000008528"	"marine"
"B000008572"	"marine"
"B000000781"	"marine"
"B000014358"	"marine"
"B000026095"	"marine"
"B000026084"	"marine"
"B000026094"	"marine"
"B000026083"	"marine"
"B000026082"	"marine"
"B000014248"	"marine"
"B000014247"	"marine"
"B000004102"	"marine"
"B000014240"	"marine"
"B000014241"	"marine"
"B000008458"	"marine"
"B000014242"	"marine"
"B000014243"	"marine"
"B000026130"	"marine"
"B000004119"	"marine"
"B000026131"	"marine"
"B000008438"	"shared"
"B000008441"	"shared"
"B000014348"	"marine"
"B000014480"	"marine"
"B000014479"	"marine"
"B000014349"	"marine"
"B000014333"	"freshwater"
"B000014332"	"freshwater"
"B000014335"	"freshwater"
"B000014773"	"freshwater"
"B000014771"	"freshwater"
"B000014774"	"freshwater"
"B000014772"	"freshwater"
"B000023479"	"freshwater"
"B000010533"	"freshwater"
"B000010624"	"freshwater"
"B000023480"	"freshwater"
"B000014323"	"shared"
"B000026389"	"freshwater"
"B000014222"	"freshwater"
"B000026388"	"freshwater"
"B000004124"	"freshwater"
"B000026341"	"shared"
"B000026342"	"freshwater"
"B000010532"	"freshwater"
"B000023494"	"freshwater"
"B000023493"	"freshwater"
"B000026183"	"freshwater"
"B000026196"	"freshwater"
"B000026191"	"freshwater"
"B000026195"	"freshwater"
"B000026199"	"freshwater"
"B000026174"	"freshwater"
"B000026175"	"freshwater"
"B000026154"	"freshwater"
"B000030999"	"freshwater"
"B000026153"	"freshwater"
"B000026192"	"freshwater"
"B000031003"	"freshwater"
"B000014430"	"freshwater"
"B000026187"	"freshwater"
"B000014451"	"freshwater"
"B000014834"	"shared"
"B000014852"	"freshwater"
"B000026366"	"freshwater"
"B000026353"	"freshwater"
"B000014825"	"freshwater"
"B000026364"	"freshwater"
"B000026379"	"freshwater"
"B000026356"	"shared"
"B000026355"	"freshwater"
"B000004341"	"freshwater"
"B000026284"	"freshwater"
"B000014718"	"freshwater"
"B000014720"	"freshwater"
"B000023998"	"freshwater"
"B000023997"	"freshwater"
"B000011631"	"freshwater"
"B000002736"	"freshwater"
"B000003529"	"freshwater"
"B000010405"	"marine"
"B000010410"	"marine"
"B000005896"	"marine"
"B000010404"	"marine"
"B000005893"	"marine"
"B000016640"	"freshwater"
"B000018346"	"freshwater"
"B000010160"	"marine"
"B000010162"	"marine"
