%!PS-Adobe-3.0 EPSF-3.0
%%DocumentNeededResources: font Helvetica
%%+ font Helvetica-Bold
%%+ font Helvetica-Oblique
%%+ font Helvetica-BoldOblique
%%+ font Symbol
%%Title: R Graphics Output
%%Creator: R Software
%%Pages: (atend)
%%BoundingBox: 0 0 516 385
%%EndComments
%%BeginProlog
/bp  { gs sRGB gs } def
% begin .ps.prolog
/gs  { gsave } bind def
/gr  { grestore } bind def
/ep  { showpage gr gr } bind def
/m   { moveto } bind def
/l  { rlineto } bind def
/np  { newpath } bind def
/cp  { closepath } bind def
/f   { fill } bind def
/o   { stroke } bind def
/c   { newpath 0 360 arc } bind def
/r   { 4 2 roll moveto 1 copy 3 -1 roll exch 0 exch rlineto 0 rlineto -1 mul 0 exch rlineto closepath } bind def
/p1  { stroke } bind def
/p2  { gsave bg fill grestore newpath } bind def
/p3  { gsave bg fill grestore stroke } bind def
/p6  { gsave bg eofill grestore newpath } bind def
/p7  { gsave bg eofill grestore stroke } bind def
/t   { 5 -2 roll moveto gsave rotate
       1 index stringwidth pop
       mul neg 0 rmoveto show grestore } bind def
/ta  { 4 -2 roll moveto gsave rotate show } bind def
/tb  { 2 -1 roll 0 rmoveto show } bind def
/cl  { grestore gsave newpath 3 index 3 index moveto 1 index
       4 -1 roll lineto  exch 1 index lineto lineto
       closepath clip newpath } bind def
/rgb { setrgbcolor } bind def
/s   { scalefont setfont } bind def
% end   .ps.prolog
/sRGB { [ /CIEBasedABC
          << /DecodeLMN
               [ { dup 0.03928 le
                        {12.92321 div}
                        {0.055 add 1.055 div 2.4 exp }
                     ifelse
                 } bind dup dup
               ]
             /MatrixLMN [0.412457 0.212673 0.019334
                         0.357576 0.715152 0.119192
                         0.180437 0.072175 0.950301]
             /WhitePoint [0.9505 1.0 1.0890]
           >>
         ] setcolorspace } bind def
/srgb { setcolor } bind def
%%IncludeResource: font Helvetica
/Helvetica findfont
dup length dict begin
  {1 index /FID ne {def} {pop pop} ifelse} forall
  /Encoding ISOLatin1Encoding def
  currentdict
  end
/Font1 exch definefont pop
%%IncludeResource: font Helvetica-Bold
/Helvetica-Bold findfont
dup length dict begin
  {1 index /FID ne {def} {pop pop} ifelse} forall
  /Encoding ISOLatin1Encoding def
  currentdict
  end
/Font2 exch definefont pop
%%IncludeResource: font Helvetica-Oblique
/Helvetica-Oblique findfont
dup length dict begin
  {1 index /FID ne {def} {pop pop} ifelse} forall
  /Encoding ISOLatin1Encoding def
  currentdict
  end
/Font3 exch definefont pop
%%IncludeResource: font Helvetica-BoldOblique
/Helvetica-BoldOblique findfont
dup length dict begin
  {1 index /FID ne {def} {pop pop} ifelse} forall
  /Encoding ISOLatin1Encoding def
  currentdict
  end
/Font4 exch definefont pop
%%IncludeResource: font Symbol
/Symbol findfont
dup length dict begin
  {1 index /FID ne {def} {pop pop} ifelse} forall
  currentdict
  end
/Font5 exch definefont pop
%%EndProlog
0.00 0.00 516.00 384.75 cl
%%Page: 1 1
bp
/bg { 1 1 1 srgb } def
0.00 0.00 516.00 384.75 r p2
59.04 73.44 227.76 325.71 cl
0.00 0.00 516.00 384.75 cl
0 0 0 srgb
0.75 setlinewidth
[] 0 setdash
1 setlinecap
1 setlinejoin
10.00 setmiterlimit
np
62.10 73.44 m
159.41 0 l
o
np
62.10 73.44 m
0 -7.20 l
o
np
93.98 73.44 m
0 -7.20 l
o
np
125.86 73.44 m
0 -7.20 l
o
np
157.75 73.44 m
0 -7.20 l
o
np
189.63 73.44 m
0 -7.20 l
o
np
221.51 73.44 m
0 -7.20 l
o
/Font1 findfont 16 s
62.10 47.52 (0) .5 0 t
93.98 47.52 (10) .5 0 t
125.86 47.52 (20) .5 0 t
157.75 47.52 (30) .5 0 t
189.63 47.52 (40) .5 0 t
221.51 47.52 (50) .5 0 t
np
59.04 79.63 m
0 189.39 l
o
np
59.04 79.63 m
-7.20 0 l
o
np
59.04 142.76 m
-7.20 0 l
o
np
59.04 205.89 m
-7.20 0 l
o
np
59.04 269.02 m
-7.20 0 l
o
41.76 79.63 (0) .5 90 t
41.76 142.76 (20) .5 90 t
41.76 205.89 (40) .5 90 t
41.76 269.02 (60) .5 90 t
np
59.04 73.44 m
168.72 0 l
0 252.27 l
-168.72 0 l
0 -252.27 l
o
0.00 0.00 258.00 384.75 cl
/Font1 findfont 16 s
0 0 0 srgb
71.82 18.72 (# of freshw) 0 ta
-0.240 (ater sites) tb gr
12.96 92.86 (n) 90 ta
-0.160 (umber of shared MED nodes) tb gr
59.04 73.44 227.76 325.71 cl
1 0 0 srgb
1.50 setlinewidth
[] 0 setdash
1 setlinecap
1 setlinejoin
10.00 setmiterlimit
np
65.29 103.90 m
3.19 20.61 l
3.19 14.14 l
3.18 12.88 l
3.19 8.21 l
3.19 11.65 l
3.19 9.40 l
3.19 10.70 l
3.18 7.20 l
3.19 6.91 l
3.19 7.77 l
3.19 5.11 l
3.19 4.42 l
3.19 3.60 l
3.18 3.09 l
3.19 2.06 l
3.19 2.99 l
3.19 2.81 l
3.19 4.45 l
3.18 3.67 l
3.19 3.75 l
3.19 4.33 l
3.19 2.81 l
3.19 2.21 l
3.19 1.92 l
3.18 2.90 l
3.19 1.80 l
3.19 2.02 l
3.19 1.49 l
3.19 3.00 l
3.19 1.80 l
3.18 2.30 l
3.19 2.84 l
3.19 1.61 l
3.19 1.01 l
3.19 2.31 l
3.18 1.67 l
3.19 1.26 l
3.19 2.65 l
3.19 2.12 l
3.19 1.48 l
3.19 0.88 l
3.18 2.02 l
3.19 1.68 l
o
0 0 1 srgb
np
65.29 104.15 m
3.19 12.28 l
3.19 10.73 l
3.18 8.46 l
3.19 7.33 l
3.19 5.36 l
3.19 4.64 l
3.19 4.58 l
3.18 3.82 l
3.19 3.25 l
3.19 1.86 l
3.19 2.21 l
3.19 1.45 l
3.19 1.71 l
3.18 1.23 l
3.19 0.88 l
3.19 1.01 l
3.19 0.82 l
3.19 0.83 l
3.18 1.07 l
3.19 1.01 l
3.19 0.57 l
3.19 0.53 l
3.19 0.67 l
3.19 0.60 l
3.18 0.53 l
3.19 0.57 l
3.19 0.57 l
3.19 0.28 l
3.19 0.48 l
3.19 0.63 l
3.18 0.44 l
3.19 0.69 l
3.19 0.51 l
3.19 0.66 l
3.19 0.35 l
3.18 0.32 l
3.19 0.41 l
3.19 0.66 l
3.19 0.53 l
3.19 0.38 l
3.19 0.13 l
3.18 0.63 l
3.19 0.29 l
o
0.6275 0.1255 0.9412 srgb
np
65.29 92.35 m
3.19 8.61 l
3.19 10.20 l
3.18 8.81 l
3.19 8.43 l
3.19 6.31 l
3.19 6.56 l
3.19 6.89 l
3.18 4.22 l
3.19 4.05 l
3.19 3.94 l
3.19 3.41 l
3.19 3.44 l
3.19 4.58 l
3.18 3.82 l
3.19 4.16 l
3.19 3.63 l
3.19 4.26 l
3.19 2.62 l
3.18 3.22 l
3.19 3.29 l
3.19 2.84 l
3.19 2.49 l
3.19 2.15 l
3.19 2.97 l
3.18 2.43 l
3.19 2.05 l
3.19 3.38 l
3.19 3.21 l
3.19 1.49 l
3.19 3.44 l
3.18 2.08 l
3.19 2.18 l
3.19 1.64 l
3.19 0.85 l
3.19 1.87 l
3.18 2.84 l
3.19 2.08 l
3.19 1.61 l
3.19 2.40 l
3.19 3.12 l
3.19 2.37 l
3.18 2.72 l
3.19 1.07 l
o
0 0.3922 0 srgb
np
65.29 81.65 m
3.19 1.83 l
3.19 1.51 l
3.18 1.74 l
3.19 1.61 l
3.19 1.29 l
3.19 0.86 l
3.19 0.56 l
3.18 1.27 l
3.19 0.97 l
3.19 1.17 l
3.19 0.35 l
3.19 1.07 l
3.19 0.22 l
3.18 0.41 l
3.19 0.76 l
3.19 0.70 l
3.19 0.19 l
3.19 0.37 l
3.18 0.23 l
3.19 0.60 l
3.19 0.31 l
3.19 0.54 l
3.19 0.50 l
3.19 0.22 l
3.18 0.16 l
3.19 0.32 l
3.19 0.31 l
3.19 0.16 l
3.19 0.44 l
3.19 0.19 l
3.18 0.13 l
3.19 0.12 l
3.19 0.41 l
3.19 0.23 l
3.19 0.12 l
3.18 0.06 l
3.19 0.26 l
3.19 0.28 l
3.19 0.29 l
3.19 0.03 l
3.19 0.19 l
3.18 0.12 l
3.19 0.13 l
o
1 0.6471 0 srgb
np
65.29 91.21 m
3.19 8.90 l
3.19 6.28 l
3.18 4.36 l
3.19 3.03 l
3.19 3.13 l
3.19 2.52 l
3.19 2.90 l
3.18 3.13 l
3.19 1.26 l
3.19 2.72 l
3.19 1.20 l
3.19 0.88 l
3.19 1.99 l
3.18 1.92 l
3.19 1.46 l
3.19 1.86 l
3.19 1.20 l
3.19 1.61 l
3.18 1.92 l
3.19 0.70 l
3.19 1.20 l
3.19 1.29 l
3.19 0.79 l
3.19 1.17 l
3.18 1.32 l
3.19 1.24 l
3.19 1.26 l
3.19 1.54 l
3.19 0.67 l
3.19 1.45 l
3.18 0.28 l
3.19 1.33 l
3.19 1.26 l
3.19 1.08 l
3.19 1.16 l
3.18 1.17 l
3.19 0.70 l
3.19 1.13 l
3.19 0.89 l
3.19 0.53 l
3.19 0.82 l
3.18 1.14 l
3.19 0.41 l
o
0 1 1 srgb
np
65.29 86.67 m
3.19 6.44 l
3.19 4.64 l
3.18 3.97 l
3.19 2.69 l
3.19 2.14 l
3.19 2.18 l
3.19 1.39 l
3.18 1.83 l
3.19 1.67 l
3.19 1.96 l
3.19 1.51 l
3.19 1.80 l
3.19 1.52 l
3.18 1.17 l
3.19 0.88 l
3.19 0.70 l
3.19 1.01 l
3.19 0.44 l
3.18 1.17 l
3.19 0.66 l
3.19 0.69 l
3.19 0.32 l
3.19 0.91 l
3.19 0.51 l
3.18 0.72 l
3.19 0.35 l
3.19 0.85 l
3.19 0.86 l
3.19 0.63 l
3.19 0.50 l
3.18 0.63 l
3.19 0.76 l
3.19 0.35 l
3.19 0.35 l
3.19 0.41 l
3.18 0.41 l
3.19 0.63 l
3.19 0.98 l
3.19 0.53 l
3.19 0.54 l
3.19 0.19 l
3.18 0.41 l
3.19 0.63 l
o
1 0.8431 0 srgb
np
65.29 81.02 m
3.19 1.45 l
3.19 1.13 l
3.18 1.46 l
3.19 1.16 l
3.19 1.05 l
3.19 0.53 l
3.19 0.63 l
3.18 0.95 l
3.19 0.54 l
3.19 0.50 l
3.19 0.60 l
3.19 0.60 l
3.19 0.25 l
3.18 0.48 l
3.19 0.44 l
3.19 0.38 l
3.19 0.35 l
3.19 0.22 l
3.18 0.31 l
3.19 0.22 l
3.19 0.29 l
3.19 0.22 l
3.19 0.35 l
3.19 0.28 l
3.18 0.16 l
3.19 0.19 l
3.19 0.03 l
3.19 0.12 l
3.19 0.26 l
3.19 0.12 l
3.18 0.22 l
3.19 0.23 l
3.19 0.22 l
3.19 0.12 l
3.19 0.16 l
3.18 0.19 l
3.19 0.19 l
3.19 0.19 l
3.19 0.22 l
3.19 0.22 l
3.19 0.16 l
3.18 0.06 l
3.19 0.10 l
o
317.04 73.44 485.76 325.71 cl
0.00 0.00 516.00 384.75 cl
0 0 0 srgb
0.75 setlinewidth
[] 0 setdash
1 setlinecap
1 setlinejoin
10.00 setmiterlimit
np
320.10 73.44 m
159.41 0 l
o
np
320.10 73.44 m
0 -7.20 l
o
np
351.98 73.44 m
0 -7.20 l
o
np
383.87 73.44 m
0 -7.20 l
o
np
415.75 73.44 m
0 -7.20 l
o
np
447.63 73.44 m
0 -7.20 l
o
np
479.51 73.44 m
0 -7.20 l
o
/Font1 findfont 16 s
320.10 47.52 (0) .5 0 t
351.98 47.52 (10) .5 0 t
383.87 47.52 (20) .5 0 t
415.75 47.52 (30) .5 0 t
447.63 47.52 (40) .5 0 t
479.51 47.52 (50) .5 0 t
np
317.04 79.63 m
0 189.39 l
o
np
317.04 79.63 m
-7.20 0 l
o
np
317.04 142.76 m
-7.20 0 l
o
np
317.04 205.89 m
-7.20 0 l
o
np
317.04 269.02 m
-7.20 0 l
o
299.76 79.63 (0) .5 90 t
299.76 142.76 (20) .5 90 t
299.76 205.89 (40) .5 90 t
299.76 269.02 (60) .5 90 t
np
317.04 73.44 m
168.72 0 l
0 252.27 l
-168.72 0 l
0 -252.27 l
o
258.00 0.00 516.00 384.75 cl
/Font1 findfont 16 s
0 0 0 srgb
342.71 18.72 (# of mar) 0 ta
0.240 (ine sites) tb gr
270.96 92.86 (n) 90 ta
-0.160 (umber of shared MED nodes) tb gr
317.04 73.44 485.76 325.71 cl
1 0 0 srgb
1.50 setlinewidth
[] 0 setdash
1 setlinecap
1 setlinejoin
10.00 setmiterlimit
np
323.29 116.24 m
3.19 24.15 l
3.19 16.86 l
3.18 14.26 l
3.19 12.72 l
3.19 12.03 l
3.19 7.92 l
3.19 7.14 l
3.18 8.30 l
3.19 6.63 l
3.19 5.77 l
3.19 5.15 l
3.19 4.48 l
3.19 3.92 l
3.18 4.45 l
3.19 3.88 l
3.19 3.25 l
3.19 3.16 l
3.19 2.65 l
3.19 2.30 l
3.18 3.38 l
3.19 3.12 l
3.19 3.26 l
3.19 2.84 l
3.19 2.43 l
3.18 3.22 l
3.19 2.74 l
3.19 2.28 l
3.19 2.30 l
3.19 2.37 l
3.19 2.59 l
3.18 1.64 l
o
0 0 1 srgb
np
323.29 88.65 m
3.19 6.70 l
3.19 6.53 l
3.18 6.53 l
3.19 5.62 l
3.19 4.80 l
3.19 3.60 l
3.19 3.44 l
3.18 3.12 l
3.19 3.92 l
3.19 3.85 l
3.19 3.66 l
3.19 3.47 l
3.19 3.29 l
3.18 3.09 l
3.19 3.69 l
3.19 3.25 l
3.19 3.29 l
3.19 2.62 l
3.19 1.45 l
3.18 2.65 l
3.19 2.02 l
3.19 2.75 l
3.19 2.14 l
3.19 2.91 l
3.18 2.05 l
3.19 1.64 l
3.19 1.93 l
3.19 1.80 l
3.19 1.83 l
3.19 1.83 l
3.18 1.99 l
o
0.6275 0.1255 0.9412 srgb
np
323.29 107.75 m
3.19 16.26 l
3.19 13.82 l
3.18 10.89 l
3.19 10.23 l
3.19 8.55 l
3.19 7.71 l
3.19 5.74 l
3.18 5.81 l
3.19 5.74 l
3.19 4.83 l
3.19 4.86 l
3.19 3.98 l
3.19 3.35 l
3.18 3.53 l
3.19 3.07 l
3.19 2.58 l
3.19 2.28 l
3.19 3.18 l
3.19 2.69 l
3.18 2.52 l
3.19 2.24 l
3.19 2.34 l
3.19 2.27 l
3.19 1.83 l
3.18 1.36 l
3.19 2.21 l
3.19 1.67 l
3.19 1.33 l
3.19 1.73 l
3.19 2.09 l
3.18 1.64 l
o
0 0.3922 0 srgb
np
323.29 82.81 m
3.19 2.50 l
3.19 2.05 l
3.18 1.58 l
3.19 1.10 l
3.19 1.68 l
3.19 1.39 l
3.19 0.56 l
3.18 0.45 l
3.19 0.69 l
3.19 0.69 l
3.19 0.60 l
3.19 0.38 l
3.19 0.38 l
3.18 0.44 l
3.19 0.73 l
3.19 0.32 l
3.19 0.47 l
3.19 0.47 l
3.19 0.41 l
3.18 0.44 l
3.19 0.41 l
3.19 0.35 l
3.19 0.41 l
3.19 0.44 l
3.18 0.45 l
3.19 0.19 l
3.19 0.41 l
3.19 0.50 l
3.19 0.47 l
3.19 0.48 l
3.18 0.63 l
o
1 0.6471 0 srgb
np
323.29 94.37 m
3.19 9.28 l
3.19 8.36 l
3.18 4.07 l
3.19 3.29 l
3.19 3.60 l
3.19 3.97 l
3.19 2.88 l
3.18 2.55 l
3.19 2.28 l
3.19 2.05 l
3.19 1.86 l
3.19 3.00 l
3.19 2.02 l
3.18 1.86 l
3.19 1.61 l
3.19 2.02 l
3.19 1.42 l
3.19 1.55 l
3.19 1.26 l
3.18 1.14 l
3.19 1.80 l
3.19 1.51 l
3.19 1.01 l
3.19 1.14 l
3.18 1.42 l
3.19 1.13 l
3.19 1.14 l
3.19 0.85 l
3.19 1.58 l
3.19 0.98 l
3.18 1.01 l
o
0 1 1 srgb
np
323.29 88.97 m
3.19 7.42 l
3.19 5.59 l
3.18 3.81 l
3.19 3.76 l
3.19 3.22 l
3.19 3.22 l
3.19 2.53 l
3.18 2.55 l
3.19 1.83 l
3.19 1.20 l
3.19 1.58 l
3.19 1.07 l
3.19 1.20 l
3.18 0.79 l
3.19 0.73 l
3.19 0.60 l
3.19 1.01 l
3.19 0.72 l
3.19 0.76 l
3.18 0.54 l
3.19 0.85 l
3.19 0.51 l
3.19 0.53 l
3.19 0.35 l
3.18 0.32 l
3.19 0.78 l
3.19 0.57 l
3.19 0.63 l
3.19 0.57 l
3.19 0.70 l
3.18 0.69 l
o
1 0.8431 0 srgb
np
323.29 83.38 m
3.19 2.59 l
3.19 1.30 l
3.18 0.85 l
3.19 0.66 l
3.19 0.44 l
3.19 0.44 l
3.19 0.67 l
3.18 0.38 l
3.19 0.41 l
3.19 0.31 l
3.19 0.29 l
3.19 0.44 l
3.19 0.25 l
3.18 0.35 l
3.19 0.41 l
3.19 0.44 l
3.19 0.41 l
3.19 0.35 l
3.19 0.22 l
3.18 0.57 l
3.19 0.22 l
3.19 0.38 l
3.19 0.22 l
3.19 0.28 l
3.18 0.29 l
3.19 0.37 l
3.19 0.23 l
3.19 0.28 l
3.19 0.41 l
3.19 0.35 l
3.18 0.38 l
o
ep
%%Trailer
%%Pages: 1
%%EOF
