"","Phylum","Family","Num OTUs In Family","Num Freshwater Samples Represented","Avg Abundance in Represented Freshwater Samples","Num Marine Samples Represented","Avg Abundance in Represented Marine Samples","Unifrac_Distanceh"
"1","Bacteria_unclassified","Bacteria_unclassified","571","17","0.0211977756835421","11","0.0120435611892802","Distance Not Calculated"
"2","Actinobacteria","Actinobacteria_unclassified","35","10","0.00363926508388677","8","0.000124654606490519","0.822064922727589"
"3","Actinobacteria","Acidimicrobiaceae","54","17","0.00978248033362155","3","5.71509831681194e-05","0.890734103468464"
"4","Actinobacteria","Acidimicrobiales_unclassified","3","4","0.000224294482854701","0","NaN","Distance Not Calculated"
"5","Actinobacteria","Sva0996_marine_group","51","1","1.87269424521058e-05","11","0.0309789589286204","0.676709762038598"
"6","Actinobacteria","Acidimicrobiales_Incertae_Sedis","4","9","0.000142454699196963","0","NaN","Distance Not Calculated"
"7","Actinobacteria","Iamiaceae","1","14","0.000464775856464685","0","NaN","Distance Not Calculated"
"8","Actinobacteria","Nocardioidaceae","1","0","NaN","4","0.000111434399613207","Distance Not Calculated"
"9","Actinobacteria","Nocardiaceae","1","2","1.92267864204818e-05","0","NaN","Distance Not Calculated"
"10","Actinobacteria","Mycobacteriaceae","9","12","0.000272209089812038","3","5.10540582272042e-05","0.703460038986355"
"11","Actinobacteria","Micrococcaceae","1","2","0.000118810063453864","0","NaN","Distance Not Calculated"
"12","Actinobacteria","Microbacteriaceae","48","16","0.0045064505333875","3","4.77763303817817e-05","0.796620995816167"
"13","Actinobacteria","Sporichthyaceae","183","17","0.124184010919105","1","9.60937875366358e-06","0.965048114146665"
"14","Actinobacteria","Frankiales_unclassified","1","1","0.000292205420410549","0","NaN","Distance Not Calculated"
"15","Actinobacteria","PeM15_unclassified","19","16","0.000703775131840977","7","0.000138246602782183","0.475041057174503"
"16","Actinobacteria","Gaiellales_unclassified","7","10","0.000354006572712816","3","0.000319373950280735","0.75468438538206"
"17","Actinobacteria","Thermoleophilia_unclassified","3","9","0.000550297681554608","0","NaN","Distance Not Calculated"
"18","Actinobacteria","Gaiellaceae","1","3","5.893921271035e-05","0","NaN","Distance Not Calculated"
"19","Actinobacteria","TM146","1","10","0.000289294061007406","0","NaN","Distance Not Calculated"
"20","Actinobacteria","Elev-16S-1332","1","0","NaN","3","8.38500559621738e-05","Distance Not Calculated"
"21","Actinobacteria","Solirubrobacterales_unclassified","1","3","0.000152080841855662","0","NaN","Distance Not Calculated"
"22","Actinobacteria","Nitriliruptoraceae","6","0","NaN","1","0.000182019757417305","Distance Not Calculated"
"23","Actinobacteria","OPB41_unclassified","7","6","0.00615523713442998","0","NaN","Distance Not Calculated"
"24","Actinobacteria","Coriobacteriaceae","1","2","0.000114599993702226","0","NaN","Distance Not Calculated"
"25","Actinobacteria","OM1_clade","22","0","NaN","11","0.0121745195601554","Distance Not Calculated"
"26","Firmicutes","Veillonellaceae","3","8","0.000161672789222921","0","NaN","Distance Not Calculated"
"27","Firmicutes","Selenomonadales_unclassified","2","4","0.000179147726105787","0","NaN","Distance Not Calculated"
"28","Firmicutes","Firmicutes_unclassified","10","12","0.00151400396939783","0","NaN","Distance Not Calculated"
"29","Firmicutes","Bacillales_unclassified","5","3","0.000103464771336567","4","0.000277610197245123","0.566445182724252"
"30","Firmicutes","Paenibacillaceae","1","0","NaN","0","NaN","Distance Not Calculated"
"31","Firmicutes","Planococcaceae","3","0","NaN","4","0.000949894982864798","Distance Not Calculated"
"32","Firmicutes","Staphylococcaceae","1","3","0.000147047559568981","3","3.59012383063392e-05","Distance Not Calculated"
"33","Firmicutes","Bacillaceae","9","0","NaN","3","0.00130856775254282","Distance Not Calculated"
"34","Firmicutes","Streptococcaceae","2","1","3.39535515414912e-05","0","NaN","Distance Not Calculated"
"35","Firmicutes","Listeriaceae","1","0","NaN","0","NaN","Distance Not Calculated"
"36","Firmicutes","Peptococcaceae","2","2","0.000578718682100507","0","NaN","Distance Not Calculated"
"37","Firmicutes","Christensenellaceae","1","1","0.00022637522951933","0","NaN","Distance Not Calculated"
"38","Firmicutes","Lachnospiraceae","6","6","0.00207327031106406","0","NaN","Distance Not Calculated"
"39","Firmicutes","Clostridiales_unclassified","16","9","0.00242366598277083","0","NaN","Distance Not Calculated"
"40","Firmicutes","Ruminococcaceae","49","9","0.0108135576490796","0","NaN","Distance Not Calculated"
"41","Firmicutes","Peptostreptococcaceae","1","1","0.000128529197549377","0","NaN","Distance Not Calculated"
"42","Firmicutes","Family_XIII","7","7","0.0014973040941849","0","NaN","Distance Not Calculated"
"43","Firmicutes","Family_XII","2","4","0.000113831308484994","0","NaN","Distance Not Calculated"
"44","Firmicutes","Erysipelotrichaceae","2","7","0.000260664727039784","0","NaN","Distance Not Calculated"
"45","Firmicutes","Clostridiaceae_1","8","10","0.00119104697601615","0","NaN","Distance Not Calculated"
"46","Firmicutes","Family_XVIII","1","3","0.000372796761193878","0","NaN","Distance Not Calculated"
"47","Firmicutes","D8A-2_unclassified","1","1","0.000704278491837915","0","NaN","Distance Not Calculated"
"48","Firmicutes","Eubacteriaceae","1","4","0.000201650313243478","0","NaN","Distance Not Calculated"
"49","Firmicutes","P._palm_C-A_51","2","2","0.00144300937500482","0","NaN","Distance Not Calculated"
"50","Tenericutes","Mycoplasmataceae","1","4","4.52876761820196e-05","0","NaN","Distance Not Calculated"
"51","Tenericutes","Acholeplasmataceae","3","0","NaN","0","NaN","Distance Not Calculated"
"52","Tenericutes","NB1-n_unclassified","5","6","0.00135246877584892","0","NaN","Distance Not Calculated"
"53","Atribacteria","Atribacteria_unclassified","1","1","0.0288502653620746","0","NaN","Distance Not Calculated"
"54","Acidobacteria","Subgroup_11_unclassified","2","0","NaN","2","0.00080162842355601","Distance Not Calculated"
"55","Acidobacteria","PAUC26f","5","0","NaN","3","0.000227876456640723","Distance Not Calculated"
"56","Acidobacteria","Unknown_Family","233","16","0.00537241576805294","11","0.0954376355662975","0.714391381551162"
"57","Acidobacteria","Subgroup_3_unclassified","3","3","0.000717486017219095","0","NaN","Distance Not Calculated"
"58","Acidobacteria","SJA-149","5","14","0.000788005331860162","0","NaN","Distance Not Calculated"
"59","Acidobacteria","Subgroup_13_unclassified","1","1","0.000882202167356135","0","NaN","Distance Not Calculated"
"60","Acidobacteria","Acidobacteriaceae_(Subgroup_1)","16","3","0.0102463476447376","0","NaN","Distance Not Calculated"
"61","Acidobacteria","Acidobacteria_unclassified","1","1","0.000214589716383925","0","NaN","Distance Not Calculated"
"62","Acidobacteria","11-24","5","2","0.000828908156962373","0","NaN","Distance Not Calculated"
"63","Acidobacteria","Subgroup_21_unclassified","7","0","NaN","5","0.000636973324607034","Distance Not Calculated"
"64","Acidobacteria","Subgroup_9_unclassified","3","0","NaN","3","0.000306580452680288","Distance Not Calculated"
"65","Acidobacteria","Subgroup_6_unclassified","45","9","0.00350260995213601","11","0.00184376844026185","0.868646236070048"
"66","Acidobacteria","NS72","1","0","NaN","2","0.000154806594023979","Distance Not Calculated"
"67","Acidobacteria","Subgroup_26_unclassified","6","0","NaN","8","0.000634411263697228","Distance Not Calculated"
"68","Acidobacteria","Subgroup_7_unclassified","1","2","0.000498807550413722","0","NaN","Distance Not Calculated"
"69","Acidobacteria","Holophagaceae","36","13","0.0195808186340465","0","NaN","Distance Not Calculated"
"70","Bacteroidetes","Flammeovirgaceae","36","0","NaN","11","0.00438654491354674","Distance Not Calculated"
"71","Bacteroidetes","Bacteroidetes_unclassified","146","17","0.00865187563972195","10","0.00068691408436954","0.911526029672023"
"72","Bacteroidetes","Chitinophagaceae","139","17","0.039744962909657","4","0.000738003645058643","0.696666362641372"
"73","Bacteroidetes","Cryomorphaceae","150","16","0.0182323627055916","11","0.00422008205731771","0.724695808618136"
"74","Bacteroidetes","Bacteroidetes_VC2.1_Bac22_unclassified","2","1","1.46102710205274e-05","3","0.00012151778151408","Distance Not Calculated"
"75","Bacteroidetes","Sphingobacteriales_unclassified","58","16","0.004368470606898","5","0.000104443657070213","0.965166574636481"
"76","Bacteroidetes","Flavobacteriales_unclassified","33","2","0.000240149590436023","10","0.00129285493601951","0.781021312658184"
"77","Bacteroidetes","NS9_marine_group","115","13","0.0022306711312535","11","0.00710788349508867","0.92671286532088"
"78","Bacteroidetes","env.OPS_17","37","17","0.0177380607748983","1","5.85217408267171e-05","0.663960267000123"
"79","Bacteroidetes","PHOS-HE51","2","3","0.000250105325464565","0","NaN","Distance Not Calculated"
"80","Bacteroidetes","CMW-169","1","1","0.000276680836079181","0","NaN","Distance Not Calculated"
"81","Bacteroidetes","B01R012","2","4","0.000332811090880633","0","NaN","Distance Not Calculated"
"82","Bacteroidetes","KD3-93","6","10","0.000457447321280307","0","NaN","Distance Not Calculated"
"83","Bacteroidetes","Sphingobacteriaceae","24","17","0.0146526462765551","0","NaN","Distance Not Calculated"
"84","Bacteroidetes","LiUU-11-161","6","9","0.00123938540575735","0","NaN","Distance Not Calculated"
"85","Bacteroidetes","S15A-MN91","3","4","0.000234614333964237","0","NaN","Distance Not Calculated"
"86","Bacteroidetes","NS11-12_marine_group","71","16","0.0161368845439714","6","0.000170048503513094","0.741709858827417"
"87","Bacteroidetes","WCHB1-69","53","12","0.0214807260547623","0","NaN","Distance Not Calculated"
"88","Bacteroidetes","FTLpost3","3","6","0.000334651125955477","0","NaN","Distance Not Calculated"
"89","Bacteroidetes","M2PB4-65_termite_group","1","2","0.000195835755446007","0","NaN","Distance Not Calculated"
"90","Bacteroidetes","ST-12K33","3","8","0.00443206710300937","0","NaN","Distance Not Calculated"
"91","Bacteroidetes","Z4MB62","1","5","0.000152999829490691","0","NaN","Distance Not Calculated"
"92","Bacteroidetes","KD1-131","4","8","0.00395203809132374","0","NaN","Distance Not Calculated"
"93","Bacteroidetes","WCHB1-32_unclassified","7","9","0.00118030882727649","0","NaN","Distance Not Calculated"
"94","Bacteroidetes","SB-5_unclassified","5","9","0.00130897765582253","0","NaN","Distance Not Calculated"
"95","Bacteroidetes","Rikenellaceae","3","8","0.0019216745292152","0","NaN","Distance Not Calculated"
"96","Bacteroidetes","Bacteroidetes_vadinHA17_unclassified","17","9","0.00523798618421179","0","NaN","Distance Not Calculated"
"97","Bacteroidetes","Marinilabiaceae","4","6","0.000792632129034622","0","NaN","Distance Not Calculated"
"98","Bacteroidetes","Bacteroidales_unclassified","4","1","0.00133309857383605","0","NaN","Distance Not Calculated"
"99","Bacteroidetes","Draconibacteriaceae","1","8","0.0019591370801369","0","NaN","Distance Not Calculated"
"100","Bacteroidetes","BSV13_unclassified","21","13","0.0143894675689605","0","NaN","Distance Not Calculated"
"101","Bacteroidetes","NS7_marine_group","23","0","NaN","11","0.000745053772107941","Distance Not Calculated"
"102","Bacteroidetes","ML602M-17_unclassified","1","0","NaN","0","NaN","Distance Not Calculated"
"103","Bacteroidetes","Flavobacteriaceae","288","17","0.0105607842838777","11","0.0273688038880457","0.789093036311076"
"104","Bacteroidetes","Cytophagaceae","28","14","0.00924523994452446","0","NaN","Distance Not Calculated"
"105","Bacteroidetes","Cytophagales_unclassified","17","9","9.48439987889744e-05","0","NaN","Distance Not Calculated"
"106","Bacteroidetes","Cyclobacteriaceae","25","12","0.00306857211590495","0","NaN","Distance Not Calculated"
"107","Bacteroidetes","Porphyromonadaceae","25","13","0.0146844553491131","0","NaN","Distance Not Calculated"
"108","Bacteroidetes","Bacteroidaceae","4","0","NaN","0","NaN","Distance Not Calculated"
"109","Bacteroidetes","Saprospiraceae","55","14","0.00370610817433762","11","0.000687446794374572","0.863660110149489"
"110","Bacteroidetes","Order_III_unclassified","12","0","NaN","3","0.000183972809769124","Distance Not Calculated"
"111","Bacteroidetes","Unknown_Family","233","16","0.00537241576805294","11","0.0954376355662975","0.714391381551162"
"112","Bacteroidetes","CK06-06-Mud-MAS4B-21","2","0","NaN","0","NaN","Distance Not Calculated"
"113","Bacteroidetes","Rhodothermaceae","9","1","1.1921650910218e-05","3","7.16218321424994e-05","Distance Not Calculated"
"114","Marinimicrobia_(SAR406_clade)","Marinimicrobia_(SAR406_clade)_unclassified","468","3","1.50862881276171e-05","11","0.105965971234761","Distance Not Calculated"
"115","Cloacimonetes","Cloacimonetes_unclassified","7","7","0.00381356347628068","0","NaN","Distance Not Calculated"
"116","Fibrobacteres","Fibrobacteraceae","1","3","6.37871915293752e-05","0","NaN","Distance Not Calculated"
"117","Fibrobacteres","Fibrobacterales_unclassified","2","4","0.000336201328376353","0","NaN","Distance Not Calculated"
"118","Fibrobacteres","B18","4","8","0.000750629428241468","0","NaN","Distance Not Calculated"
"119","Fibrobacteres","Fibrobacteria_unclassified","2","6","0.00104976901713188","0","NaN","Distance Not Calculated"
"120","Fibrobacteres","Unknown_Family","233","16","0.00537241576805294","11","0.0954376355662975","Distance Not Calculated"
"121","Parcubacteria","Parcubacteria_unclassified","113","17","0.00563204937957941","0","NaN","Distance Not Calculated"
"122","SM2F11","SM2F11_unclassified","1","1","0.000243450251877376","0","NaN","Distance Not Calculated"
"123","Archaea_unclassified","Archaea_unclassified","28","11","0.00128767293003878","9","0.0043725811870184","Distance Not Calculated"
"124","Woesearchaeota_(DHVEG-6)","Woesearchaeota_(DHVEG-6)_unclassified","28","9","0.00285235339019532","8","0.000303013070400789","Distance Not Calculated"
"125","unknown_unclassified","unknown_unclassified","24","12","0.000853884230317243","3","0.000194783882886046","Distance Not Calculated"
"126","Euryarchaeota","Methanospirillaceae","5","6","0.000595907557798243","0","NaN","Distance Not Calculated"
"127","Euryarchaeota","Methanoregulaceae","4","10","0.00206402149634028","0","NaN","Distance Not Calculated"
"128","Euryarchaeota","Methanomicrobiales_unclassified","2","9","0.000813057730254311","0","NaN","Distance Not Calculated"
"129","Euryarchaeota","Halobacteriaceae","19","0","NaN","4","4.98966150448132e-05","Distance Not Calculated"
"130","Euryarchaeota","Methanosaetaceae","1","7","0.00557381729926271","0","NaN","Distance Not Calculated"
"131","Euryarchaeota","Marine_Group_III","36","0","NaN","11","0.0264384790559469","Distance Not Calculated"
"132","Euryarchaeota","Terrestrial_Miscellaneous_Gp(TMEG)","3","6","0.000423502411319105","0","NaN","Distance Not Calculated"
"133","Euryarchaeota","Marine_Group_II","97","1","1.46102710205274e-05","11","0.048612438940567","Distance Not Calculated"
"134","Nanohaloarchaeota","Nanohaloarchaeota_unclassified","2","0","NaN","0","NaN","Distance Not Calculated"
"135","Thaumarchaeota","Marine_Benthic_Group_B_unclassified","1","4","0.000102602896966736","0","NaN","Distance Not Calculated"
"136","Thaumarchaeota","Unknown_Family","233","16","0.00537241576805294","11","0.0954376355662975","0.714391381551162"
"137","Thaumarchaeota","Marine_Group_I_unclassified","43","0","NaN","10","0.0069370409618091","Distance Not Calculated"
"138","Thaumarchaeota","pSL12_unclassified","1","0","NaN","3","0.000693642224801277","Distance Not Calculated"
"139","Thaumarchaeota","Marine_Benthic_Group_A_unclassified","6","0","NaN","7","0.000904724274102979","Distance Not Calculated"
"140","Thaumarchaeota","Thaumarchaeota_unclassified","1","0","NaN","3","0.000530861112146802","Distance Not Calculated"
"141","Cyanobacteria","Caenarcaniphilales_unclassified","1","7","6.48495322117385e-05","0","NaN","Distance Not Calculated"
"142","Cyanobacteria","Melainabacteria_unclassified","2","6","0.00107125440040654","0","NaN","Distance Not Calculated"
"143","Cyanobacteria","Gastranaerophilales_unclassified","16","12","0.00251555465978281","0","NaN","Distance Not Calculated"
"144","Cyanobacteria","Cyanobacteria_unclassified","17","7","0.000207263970063839","0","NaN","Distance Not Calculated"
"145","Cyanobacteria","Vampirovibrionales_unclassified","2","2","0.000272923151269754","0","NaN","Distance Not Calculated"
"146","Cyanobacteria","FamilyI","228","14","0.0140543734003267","11","0.0543687920205069","0.896747205604113"
"147","Cyanobacteria","Chloroplast_unclassified","5","1","0.000128529197549377","2","6.51938750039084e-05","0.732293686528412"
"148","Cyanobacteria","ML635J-21_unclassified","72","11","0.000508819152687043","10","0.00118598337732015","0.875899552328367"
"149","Gracilibacteria","Gracilibacteria_unclassified","15","10","0.00102363877658177","5","0.000476904207499845","Distance Not Calculated"
"150","Candidate_division_SR1","Candidate_division_SR1_unclassified","22","11","0.00185716689920539","2","0.000121258963827932","Distance Not Calculated"
"151","Proteobacteria_unclassified","Proteobacteria_unclassified","205","17","0.00740441319172748","11","0.00242389560191621","Distance Not Calculated"
"152","Alphaproteobacteria","Mitochondria","1","2","0.000664265659196868","0","NaN","Distance Not Calculated"
"153","Alphaproteobacteria","Rickettsiales_unclassified","30","10","0.000153976683554375","11","0.000628014500648814","0.894431329897459"
"154","Alphaproteobacteria","S25-593","73","0","NaN","11","0.00601138548310784","Distance Not Calculated"
"155","Alphaproteobacteria","SWB04","1","1","3.78529790294496e-05","0","NaN","Distance Not Calculated"
"156","Alphaproteobacteria","Rickettsiales_Incertae_Sedis","39","16","0.00131575993774908","1","3.89120199229542e-05","0.891902409818889"
"157","Alphaproteobacteria","SM2D12","5","1","3.39535515414912e-05","0","NaN","Distance Not Calculated"
"158","Alphaproteobacteria","Alphaproteobacteria_unclassified","169","17","0.00330082257966171","11","0.00548806108775686","0.88726908196767"
"159","Alphaproteobacteria","Rhodospirillaceae","456","13","0.006653740861008","11","0.0440893999518793","0.937290011677797"
"160","Alphaproteobacteria","Surface_4","7","0","NaN","11","0.00360694317597745","Distance Not Calculated"
"161","Alphaproteobacteria","Deep_1","57","0","NaN","11","0.00660358012608807","Distance Not Calculated"
"162","Alphaproteobacteria","SAR11_clade_unclassified","36","1","8.55080890652256e-06","9","0.00111785342151504","Distance Not Calculated"
"163","Alphaproteobacteria","Surface_3","2","0","NaN","3","0.00116179267972304","Distance Not Calculated"
"164","Alphaproteobacteria","Surface_2","7","1","1.87269424521058e-05","9","0.00172318706721847","Distance Not Calculated"
"165","Alphaproteobacteria","Surface_1","39","1","1.87269424521058e-05","11","0.0104079817783172","Distance Not Calculated"
"166","Alphaproteobacteria","Chesapeake-Delaware_Bay","1","0","NaN","0","NaN","Distance Not Calculated"
"167","Alphaproteobacteria","LD12_freshwater_group","18","15","0.00963984619299433","0","NaN","Distance Not Calculated"
"168","Alphaproteobacteria","Magnetococcaceae","1","1","0.000814018251146052","0","NaN","Distance Not Calculated"
"169","Alphaproteobacteria","DB1-14_unclassified","9","2","0.000212499783002818","0","NaN","0.869470895846178"
"170","Alphaproteobacteria","S26-47_unclassified","1","0","NaN","1","1.9507246942239e-05","Distance Not Calculated"
"171","Alphaproteobacteria","Hyphomonadaceae","22","6","0.000141867442565759","6","0.000588061800229923","0.612668964715907"
"172","Alphaproteobacteria","SB1-18_unclassified","3","0","NaN","3","9.83248579477677e-05","Distance Not Calculated"
"173","Alphaproteobacteria","EF100-94H03","2","3","0.000163989738097566","0","NaN","Distance Not Calculated"
"174","Alphaproteobacteria","Rhodobacteraceae","171","17","0.00152875924112497","11","0.0253589618543585","0.72394639575461"
"175","Alphaproteobacteria","OCS116_clade_unclassified","31","1","0.000190746414563489","11","0.0105115793990113","Distance Not Calculated"
"176","Alphaproteobacteria","Hyphomicrobiaceae","4","5","5.92416732514283e-05","0","NaN","Distance Not Calculated"
"177","Alphaproteobacteria","Phyllobacteriaceae","4","0","NaN","4","1.96145945999085e-05","Distance Not Calculated"
"178","Alphaproteobacteria","FukuN57","5","5","0.000818763809804894","0","NaN","Distance Not Calculated"
"179","Alphaproteobacteria","Caulobacteraceae","34","17","0.00142403969060796","9","0.000902716454390129","0.507991589948764"
"180","Alphaproteobacteria","ORCA-3N101","1","2","0.000302189258917859","0","NaN","Distance Not Calculated"
"181","Alphaproteobacteria","Bradyrhizobiaceae","8","6","8.7358831712904e-05","6","3.81543110700386e-05","0.256464283856199"
"182","Alphaproteobacteria","Methylobacteriaceae","10","6","0.000258457478522715","7","0.00131841023155072","0.339411115569823"
"183","Alphaproteobacteria","Rhizobiales_unclassified","20","16","0.0021605815512855","0","NaN","Distance Not Calculated"
"184","Alphaproteobacteria","Rhizobiaceae","1","0","NaN","2","3.34705724108927e-05","Distance Not Calculated"
"185","Alphaproteobacteria","Aurantimonadaceae","1","0","NaN","2","4.09988536577381e-05","Distance Not Calculated"
"186","Alphaproteobacteria","Brucellaceae","1","0","NaN","0","NaN","Distance Not Calculated"
"187","Alphaproteobacteria","MNG7","4","12","0.000461922227941184","0","NaN","Distance Not Calculated"
"188","Alphaproteobacteria","Rhizobiales_Incertae_Sedis","12","14","0.00206817347824115","1","7.80289877689562e-05","0.61453841630733"
"189","Alphaproteobacteria","Beijerinckiaceae","9","15","0.00108107728210295","0","NaN","Distance Not Calculated"
"190","Alphaproteobacteria","Methylocystaceae","1","4","0.00207867053551696","0","NaN","Distance Not Calculated"
"191","Alphaproteobacteria","alphaI_cluster","6","3","0.00218296570345111","0","NaN","Distance Not Calculated"
"192","Alphaproteobacteria","Xanthobacteraceae","7","5","0.000221942967829234","0","NaN","Distance Not Calculated"
"193","Alphaproteobacteria","Rhodobiaceae","7","2","5.97572957723475e-05","5","5.67238142345948e-05","Distance Not Calculated"
"194","Alphaproteobacteria","Parvularculaceae","1","0","NaN","0","NaN","Distance Not Calculated"
"195","Alphaproteobacteria","Rhodospirillales_unclassified","64","13","0.00136628804830037","11","0.00205009103386168","0.872064095469528"
"196","Alphaproteobacteria","Sphingomonadaceae","57","17","0.00375127684539125","9","0.000791607102830476","0.681724476666159"
"197","Alphaproteobacteria","Sphingomonadales_unclassified","6","8","0.000399379882290811","8","0.000326608596845425","0.604741331560873"
"198","Alphaproteobacteria","Erythrobacteraceae","11","5","0.000220378092598271","10","0.000610176885275251","0.550430023455825"
"199","Alphaproteobacteria","M05-Pitesti","1","4","0.000191090893775943","0","NaN","Distance Not Calculated"
"200","Alphaproteobacteria","4-Org1-14_unclassified","1","0","NaN","0","NaN","Distance Not Calculated"
"201","Alphaproteobacteria","A0839","3","6","4.76105550414018e-05","0","NaN","Distance Not Calculated"
"202","Alphaproteobacteria","KF-JG30-B3","2","3","0.000389787400947693","0","NaN","Distance Not Calculated"
"203","Alphaproteobacteria","I-10","5","8","0.000178394307279967","0","NaN","Distance Not Calculated"
"204","Alphaproteobacteria","Acetobacteraceae","58","17","0.00397516256621322","0","NaN","Distance Not Calculated"
"205","Alphaproteobacteria","SHWN-night2","2","0","NaN","1","1.65472506743005e-05","Distance Not Calculated"
"206","Alphaproteobacteria","DA111","2","4","0.000324678234180313","0","NaN","Distance Not Calculated"
"207","Alphaproteobacteria","T9d","1","0","NaN","0","NaN","Distance Not Calculated"
"208","Alphaproteobacteria","TK34","1","3","0.000531827588846112","0","NaN","Distance Not Calculated"
"209","Alphaproteobacteria","SAR116_clade","81","0","NaN","11","0.00746314592763756","Distance Not Calculated"
"210","Alphaproteobacteria","AT-s3-44","23","3","0.000339854764388136","11","0.00163602395810835","0.905025202382771"
"211","Alphaproteobacteria","Rhodospirillales_Incertae_Sedis","6","9","0.000496072550328365","0","NaN","Distance Not Calculated"
"212","Alphaproteobacteria","AKIW1012","1","4","0.00015971184303898","0","NaN","Distance Not Calculated"
"213","Alphaproteobacteria","LWSR-14","4","2","0.000126297259705014","1","4.51916124367317e-05","Distance Not Calculated"
"214","Alphaproteobacteria","Rickettsiaceae","22","17","0.00238857405439687","2","4.12567793272928e-05","0.704547316673494"
"215","Epsilonproteobacteria","Helicobacteraceae","12","11","0.00315329342600938","1","2.17495323850537e-05","0.754265964132064"
"216","Epsilonproteobacteria","Campylobacteraceae","54","12","0.00167953475129381","7","0.00121803485037172","0.694888936107615"
"217","Microgenomates","Microgenomates_unclassified","2","1","0.0032447116231104","0","NaN","Distance Not Calculated"
"218","WCHB1-60","WCHB1-60_unclassified","4","7","0.000127233714591196","0","NaN","Distance Not Calculated"
"219","Saccharibacteria","Saccharibacteria_unclassified","7","9","0.000237424811231601","0","NaN","Distance Not Calculated"
"220","Deinococcus-Thermus","Deinococci_unclassified","1","0","NaN","0","NaN","Distance Not Calculated"
"221","Deinococcus-Thermus","Deinococcaceae","2","2","0.000644454189958591","0","NaN","Distance Not Calculated"
"222","Deinococcus-Thermus","Trueperaceae","2","0","NaN","2","7.61899687988454e-05","Distance Not Calculated"
"223","Deinococcus-Thermus","KD3-62_unclassified","3","9","0.0048051367640256","0","NaN","Distance Not Calculated"
"224","Lentisphaerae","Lentisphaeraceae","4","0","NaN","5","0.000424922027552059","Distance Not Calculated"
"225","Lentisphaerae","Lentisphaerae_unclassified","18","11","0.0148850098649132","0","NaN","Distance Not Calculated"
"226","Lentisphaerae","PBS-III-20_unclassified","3","8","0.000373527006439849","0","NaN","Distance Not Calculated"
"227","Lentisphaerae","WCHB1-41_unclassified","22","13","0.00669257570032809","0","NaN","Distance Not Calculated"
"228","Lentisphaerae","Lentisphaerae_RFP12_gut_group_unclassified","15","10","0.00781969022542406","0","NaN","Distance Not Calculated"
"229","Lentisphaerae","LD1-PA26_unclassified","1","0","NaN","1","0.000106339142108971","Distance Not Calculated"
"230","Lentisphaerae","SS1-B-03-39_unclassified","2","0","NaN","0","NaN","Distance Not Calculated"
"231","Lentisphaerae","R76-B128_unclassified","3","0","NaN","1","4.94592455816407e-05","Distance Not Calculated"
"232","Lentisphaerae","MSBL3_unclassified","7","6","0.00141355155865475","0","NaN","Distance Not Calculated"
"233","Lentisphaerae","BS5_unclassified","2","2","0.00046376532566744","0","NaN","Distance Not Calculated"
"234","Lentisphaerae","Oligosphaerales_unclassified","10","10","0.00148110627299828","0","NaN","Distance Not Calculated"
"235","Lentisphaerae","Victivallaceae","13","11","0.0151084343436569","0","NaN","Distance Not Calculated"
"236","Lentisphaerae","Oligosphaeria_unclassified","1","0","NaN","2","8.19388242442106e-05","Distance Not Calculated"
"237","Fusobacteria","Fusobacteriales_unclassified","2","6","0.000245247219941256","0","NaN","Distance Not Calculated"
"238","Fusobacteria","Fusobacteriaceae","4","0","NaN","0","NaN","Distance Not Calculated"
"239","Fusobacteria","Hados.Sed.Eubac.3","1","4","0.000630357196514309","0","NaN","Distance Not Calculated"
"240","Chloroflexi","Roseiflexaceae","3","12","0.000136381976528536","0","NaN","Distance Not Calculated"
"241","Chloroflexi","SAR202_clade_unclassified","144","0","NaN","11","0.0191369825630799","Distance Not Calculated"
"242","Chloroflexi","Chloroflexaceae","3","6","0.000635765461890008","0","NaN","Distance Not Calculated"
"243","Chloroflexi","Chloroflexales_unclassified","3","5","0.00204040080824976","0","NaN","Distance Not Calculated"
"244","Chloroflexi","Oscillochloridaceae","2","6","0.0040777511773595","0","NaN","Distance Not Calculated"
"245","Chloroflexi","SL56_marine_group_unclassified","5","14","0.00580533958428808","0","NaN","Distance Not Calculated"
"246","Chloroflexi","KD4-96_unclassified","2","3","6.78666838856651e-05","1","0.000810835958580904","Distance Not Calculated"
"247","Chloroflexi","Anaerolineaceae","46","15","0.0564698116468183","0","NaN","Distance Not Calculated"
"248","Chloroflexi","Chloroflexi_unclassified","27","8","0.000688623616027433","10","0.00223833328375092","0.919509265495143"
"249","Chloroflexi","S085_unclassified","1","0","NaN","9","0.000104571721429021","Distance Not Calculated"
"250","Chloroflexi","vadinBA26_unclassified","1","4","0.000207164869213764","0","NaN","Distance Not Calculated"
"251","Chloroflexi","GIF9_unclassified","9","7","0.0315702514106699","0","NaN","Distance Not Calculated"
"252","Chloroflexi","JG30-KF-CM66_unclassified","2","3","0.000681510458380246","2","0.000378113362125104","Distance Not Calculated"
"253","Chloroflexi","TK10_unclassified","3","3","0.000166440483482934","4","0.000501790077546037","Distance Not Calculated"
"254","Chloroflexi","Caldilineaceae","3","6","0.000296609653631607","0","NaN","Distance Not Calculated"
"255","Chloroflexi","Ardenticatenia_unclassified","1","2","0.000274120805319465","0","NaN","Distance Not Calculated"
"256","Armatimonadetes","Armatimonadetes_unclassified","12","16","0.000812308378049194","0","NaN","Distance Not Calculated"
"257","Armatimonadetes","Chthonomonadales_unclassified","1","5","0.000385409892284045","0","NaN","Distance Not Calculated"
"258","Armatimonadetes","Armatimonadaceae","1","13","0.00276236141754209","0","NaN","Distance Not Calculated"
"259","Armatimonadetes","Armatimonadales_unclassified","1","1","0.00138579374145583","0","NaN","Distance Not Calculated"
"260","Armatimonadetes","Chthonomonadaceae","2","2","0.000721881313340511","0","NaN","Distance Not Calculated"
"261","Spirochaetae","Leptospiraceae","4","15","0.000672030493448047","0","NaN","Distance Not Calculated"
"262","Spirochaetae","V2072-189E03","3","7","0.000214496116194446","0","NaN","Distance Not Calculated"
"263","Spirochaetae","Brevinemataceae","1","1","0.00179100113308235","0","NaN","Distance Not Calculated"
"264","Spirochaetae","Spirochaetaceae","32","12","0.00295107753333232","5","0.000503465963541699","Distance Not Calculated"
"265","Elusimicrobia","Lineage_IV_unclassified","4","2","0.000865288848013265","0","NaN","Distance Not Calculated"
"266","Elusimicrobia","Lineage_I_(Endomicrobia)_unclassified","5","7","0.000698347344444631","0","NaN","Distance Not Calculated"
"267","Elusimicrobia","Elusimicrobia_unclassified","1","1","0.00374776768870891","0","NaN","Distance Not Calculated"
"268","Synergistetes","Synergistaceae","1","1","0.00198707145911412","0","NaN","Distance Not Calculated"
"269","WD272","WD272_unclassified","1","1","0.000166903112743053","0","NaN","Distance Not Calculated"
"270","Hydrogenedentes","Hydrogenedentes_unclassified","6","8","0.00051402434127656","3","9.39889832824831e-05","Distance Not Calculated"
"271","Planctomycetes","Pla3_lineage_unclassified","5","0","NaN","8","0.000713466701775954","Distance Not Calculated"
"272","Planctomycetes","Planctomycetes_unclassified","16","11","0.0123202900231765","6","0.000372851304044658","0.898840216535749"
"273","Planctomycetes","OM190_unclassified","12","4","8.7230978901089e-05","2","0.000124513821738611","0.726581206757418"
"274","Planctomycetes","Planctomycetaceae","210","16","0.0138295888182289","11","0.00596753307639301","0.843283813412742"
"275","Planctomycetes","Planctomycetacia_unclassified","1","6","0.000129396210493771","0","NaN","Distance Not Calculated"
"276","Planctomycetes","Pla4_lineage_unclassified","1","0","NaN","2","0.000124513821738611","Distance Not Calculated"
"277","Planctomycetes","Phycisphaerales_unclassified","4","9","0.00154741358749726","0","NaN","Distance Not Calculated"
"278","Planctomycetes","ML-A-10_unclassified","1","4","0.000124838242542423","0","NaN","Distance Not Calculated"
"279","Planctomycetes","Phycisphaeraceae","75","14","0.0107979393799814","11","0.00338919876657703","0.912315041757444"
"280","Planctomycetes","Phycisphaerae_unclassified","1","0","NaN","2","0.000281383598769797","Distance Not Calculated"
"281","Planctomycetes","WD2101_soil_group_unclassified","2","5","0.000423615457900756","0","NaN","Distance Not Calculated"
"282","Planctomycetes","CPla-3_termite_group_unclassified","3","7","0.00539620453151666","0","NaN","Distance Not Calculated"
"283","Planctomycetes","Brocadiaceae","1","1","1.87269424521058e-05","2","0.000957233012223426","Distance Not Calculated"
"284","Planctomycetes","vadinHA49_unclassified","14","12","0.00409292661366027","0","NaN","Distance Not Calculated"
"285","Deltaproteobacteria","Nitrospinaceae","152","0","NaN","11","0.0292548798634709","Distance Not Calculated"
"286","Deltaproteobacteria","GR-WP33-30_unclassified","4","2","0.000171066503702857","4","0.000125740556882509","Distance Not Calculated"
"287","Deltaproteobacteria","Bacteriovoracaceae","74","17","0.00134226783683886","11","0.00150925324994528","0.840228051718872"
"288","Deltaproteobacteria","GR-WP33-58","35","3","9.94427884370164e-05","4","0.000453637803543841","0.62731499646865"
"289","Deltaproteobacteria","Oligoflexaceae","60","16","0.00174087195437335","11","0.000783552346543334","0.922264793145831"
"290","Deltaproteobacteria","Deltaproteobacteria_unclassified","37","12","0.00158525742138622","9","0.000631957958501472","0.822971893659909"
"291","Deltaproteobacteria","Desulfovibrionaceae","9","10","0.00157570211360244","0","NaN","Distance Not Calculated"
"292","Deltaproteobacteria","SAR324_clade(Marine_group_B)_unclassified","58","2","4.79474844931607e-05","11","0.0635229195825855","0.588876856435644"
"293","Deltaproteobacteria","Oligoflexales_unclassified","30","16","0.000425064525894807","1","0.000146216320399835","Distance Not Calculated"
"294","Deltaproteobacteria","Desulfobulbaceae","20","10","0.00669578040102586","0","NaN","Distance Not Calculated"
"295","Deltaproteobacteria","VHS-B3-70","1","0","NaN","1","0.000159508713163457","Distance Not Calculated"
"296","Deltaproteobacteria","Desulfarculaceae","1","1","0.00168523781975501","0","NaN","Distance Not Calculated"
"297","Deltaproteobacteria","Sva0485_unclassified","6","8","0.000659445594110454","0","NaN","Distance Not Calculated"
"298","Deltaproteobacteria","Sh765B-TzT-29_unclassified","10","0","NaN","10","0.000283596707575634","Distance Not Calculated"
"299","Deltaproteobacteria","Blfdi19","10","6","0.000561406843133314","11","0.000406822579093477","0.918865202756852"
"300","Deltaproteobacteria","Myxococcales_unclassified","7","5","0.00031533979775949","0","NaN","Distance Not Calculated"
"301","Deltaproteobacteria","Cystobacteraceae","4","3","0.000582427807858311","0","NaN","Distance Not Calculated"
"302","Deltaproteobacteria","P3OB-42","36","2","5.48225582408622e-05","11","0.00170095269826946","0.825289623698156"
"303","Deltaproteobacteria","Phaselicystidaceae","2","3","0.00054003259449741","0","NaN","Distance Not Calculated"
"304","Deltaproteobacteria","Eel-36e1D6","1","3","0.00015759981362225","0","NaN","Distance Not Calculated"
"305","Deltaproteobacteria","mle1-27","6","7","0.00145494852519745","0","NaN","Distance Not Calculated"
"306","Deltaproteobacteria","Polyangiaceae","7","8","0.000882108167696492","0","NaN","Distance Not Calculated"
"307","Deltaproteobacteria","BIrii41","1","0","NaN","0","NaN","Distance Not Calculated"
"308","Deltaproteobacteria","Sandaracinaceae","7","5","9.43817059116233e-05","4","0.000301454291578789","0.997230485177967"
"309","Deltaproteobacteria","Syntrophobacteraceae","5","4","0.000763732441657551","0","NaN","Distance Not Calculated"
"310","Deltaproteobacteria","Haliangiaceae","1","0","NaN","0","NaN","Distance Not Calculated"
"311","Deltaproteobacteria","Desulfobacteraceae","13","10","0.00791093397571053","0","NaN","Distance Not Calculated"
"312","Deltaproteobacteria","Syntrophaceae","33","13","0.00783296035429577","0","NaN","Distance Not Calculated"
"313","Deltaproteobacteria","Desulfuromonadales_unclassified","9","9","0.00121338026083732","0","NaN","Distance Not Calculated"
"314","Deltaproteobacteria","BVA18","6","11","0.00470653596237181","0","NaN","Distance Not Calculated"
"315","Deltaproteobacteria","Geobacteraceae","3","9","0.00175226707777198","0","NaN","Distance Not Calculated"
"316","Deltaproteobacteria","Bdellovibrionaceae","80","16","0.00241757321400649","10","0.000527043090531587","0.94692614362931"
"317","Deltaproteobacteria","Syntrophorhabdaceae","3","1","0.00510601906582489","0","NaN","Distance Not Calculated"
"318","Deltaproteobacteria","Desulfurellaceae","4","0","NaN","8","0.00016726644554084","Distance Not Calculated"
"319","Aminicenantes","Aminicenantes_unclassified","4","3","0.000935759691878701","0","NaN","Distance Not Calculated"
"320","Candidate_division_OP3","Candidate_division_OP3_unclassified","42","13","0.00475178157232425","0","NaN","Distance Not Calculated"
"321","Omnitrophica","NPL-UPA2_unclassified","17","14","0.00427962199789079","0","NaN","Distance Not Calculated"
"322","Verrucomicrobia","Chthoniobacterales_unclassified","16","7","0.00129863311546155","0","NaN","Distance Not Calculated"
"323","Verrucomicrobia","Chthoniobacteraceae","16","11","0.00279002952886258","0","NaN","Distance Not Calculated"
"324","Verrucomicrobia","LD29","15","15","0.00159761975255891","1","9.60937875366358e-06","Distance Not Calculated"
"325","Verrucomicrobia","FukuN18_freshwater_group","44","17","0.0111408142464769","0","NaN","Distance Not Calculated"
"326","Verrucomicrobia","Verrucomicrobiaceae","81","17","0.0112317335114713","8","0.000166269675400648","0.864970218036758"
"327","Verrucomicrobia","Verrucomicrobiales_unclassified","15","15","0.000688438169497105","0","NaN","Distance Not Calculated"
"328","Verrucomicrobia","DEV007","14","4","0.000218653077471647","10","0.000365632481250048","0.675896560136619"
"329","Verrucomicrobia","Verrucomicrobia_unclassified","11","6","0.00127616126103216","3","7.77703574723273e-05","0.904742510634447"
"330","Verrucomicrobia","Rubritaleaceae","4","0","NaN","7","0.000186379883479472","Distance Not Calculated"
"331","Verrucomicrobia","OPB35_soil_group_unclassified","90","17","0.0251735855880058","5","0.00015706154599116","0.935885754662601"
"332","Verrucomicrobia","Arctic97B-4_marine_group_unclassified","22","0","NaN","11","0.00231099944223243","Distance Not Calculated"
"333","Verrucomicrobia","Unknown_Family","233","16","0.00537241576805294","11","0.0954376355662975","0.714391381551162"
"334","Verrucomicrobia","B29_unclassified","3","6","0.000343420475420153","0","NaN","Distance Not Calculated"
"335","Verrucomicrobia","S-BQ2-57_soil_group_unclassified","8","8","0.00130535711273404","0","NaN","Distance Not Calculated"
"336","Verrucomicrobia","Opitutae_vadinHA64_unclassified","31","16","0.0207788037616469","0","NaN","Distance Not Calculated"
"337","Verrucomicrobia","Opitutaceae","48","17","0.00735041546803085","0","NaN","Distance Not Calculated"
"338","Verrucomicrobia","Puniceicoccaceae","32","0","NaN","10","0.000332148082721288","Distance Not Calculated"
"339","Verrucomicrobia","Opitutae_unclassified","15","0","NaN","11","0.000586664120696024","Distance Not Calculated"
"340","Verrucomicrobia","RS-B22_unclassified","1","0","NaN","1","0.000372186997381399","Distance Not Calculated"
"341","Verrucomicrobia","MB11C04_marine_group_unclassified","35","0","NaN","11","0.00127634809113924","Distance Not Calculated"
"342","Latescibacteria","Latescibacteria_unclassified","2","3","0.000308055641589284","0","NaN","Distance Not Calculated"
"343","Latescibacteria","Unknown_Family","233","16","0.00537241576805294","11","0.0954376355662975","Distance Not Calculated"
"344","SPOTSOCT00m83","SPOTSOCT00m83_unclassified","10","0","NaN","8","0.00019886972201837","Distance Not Calculated"
"345","Gammaproteobacteria","JTB255_marine_benthic_group","20","1","1.46102710205274e-05","11","0.00184944053430735","Distance Not Calculated"
"346","Gammaproteobacteria","Gammaproteobacteria_unclassified","190","16","0.00203403836627655","11","0.00553311194943879","0.854797093143704"
"347","Gammaproteobacteria","Xanthomonadales_Incertae_Sedis","13","9","0.00152875429594215","0","NaN","Distance Not Calculated"
"348","Gammaproteobacteria","Thiotrichaceae","11","1","0.000496749214697933","9","0.000557678962304945","Distance Not Calculated"
"349","Gammaproteobacteria","Chromatiaceae","16","11","0.00259541153025761","4","0.000148739246448706","0.817106104021934"
"350","Gammaproteobacteria","Spongiibacteraceae","10","4","0.000113641457640265","5","0.000274241634633589","0.844719815769273"
"351","Gammaproteobacteria","Granulosicoccaceae","1","0","NaN","0","NaN","Distance Not Calculated"
"352","Gammaproteobacteria","Coxiellaceae","57","12","0.000189931786907811","11","0.000350671818512789","0.92217608493817"
"353","Gammaproteobacteria","Methylococcaceae","37","13","0.0333599076258795","0","NaN","Distance Not Calculated"
"354","Gammaproteobacteria","IheB2-23","1","0","NaN","5","0.0029511616530606","Distance Not Calculated"
"355","Gammaproteobacteria","Piscirickettsiaceae","7","0","NaN","5","0.000106984698320954","Distance Not Calculated"
"356","Gammaproteobacteria","Milano-WF1B-03","1","0","NaN","6","0.00125084525987236","Distance Not Calculated"
"357","Gammaproteobacteria","Methylococcales_unclassified","7","7","0.0017142008672496","0","NaN","Distance Not Calculated"
"358","Gammaproteobacteria","Crenotrichaceae","3","10","0.00511796351157364","0","NaN","Distance Not Calculated"
"359","Gammaproteobacteria","CABC2E06","7","12","0.0108085629354181","0","NaN","Distance Not Calculated"
"360","Gammaproteobacteria","Alteromonadaceae","30","0","NaN","10","0.000457754860846579","Distance Not Calculated"
"361","Gammaproteobacteria","Cellvibrionaceae","15","6","9.90335863449215e-05","10","0.000352873649878652","1"
"362","Gammaproteobacteria","Oceanospirillaceae","60","13","0.00248250251251744","11","0.0241891968301754","0.67922940698778"
"363","Gammaproteobacteria","Pseudomonadaceae","15","12","0.000172570922129715","5","6.3261247317014e-05","0.761320111233538"
"364","Gammaproteobacteria","Porticoccaceae","23","1","1.87269424521058e-05","11","0.00368070449751661","0.691253015107274"
"365","Gammaproteobacteria","KI89A_clade_unclassified","49","3","0.000572099510481728","11","0.00452768855859581","0.921810106829912"
"366","Gammaproteobacteria","Oleiphilaceae","2","0","NaN","0","NaN","Distance Not Calculated"
"367","Gammaproteobacteria","Idiomarinaceae","3","0","NaN","3","0.00233711751990134","Distance Not Calculated"
"368","Gammaproteobacteria","Colwelliaceae","16","0","NaN","9","0.00154967210728542","Distance Not Calculated"
"369","Gammaproteobacteria","Litoricolaceae","12","0","NaN","6","9.97053636897968e-05","Distance Not Calculated"
"370","Gammaproteobacteria","Saccharospirillaceae","2","0","NaN","0","NaN","Distance Not Calculated"
"371","Gammaproteobacteria","Oceanospirillales_unclassified","42","0","NaN","11","0.0259045016117468","Distance Not Calculated"
"372","Gammaproteobacteria","Hahellaceae","3","0","NaN","0","NaN","Distance Not Calculated"
"373","Gammaproteobacteria","Alcanivoracaceae","11","0","NaN","8","0.000154225152354856","Distance Not Calculated"
"374","Gammaproteobacteria","Cellvibrionales_unclassified","3","3","0.000658337469948178","6","0.000105717033717195","Distance Not Calculated"
"375","Gammaproteobacteria","Ectothiorhodospiraceae","4","0","NaN","0","NaN","Distance Not Calculated"
"376","Gammaproteobacteria","BD2-7","1","0","NaN","0","NaN","Distance Not Calculated"
"377","Gammaproteobacteria","Halieaceae","47","3","2.19685930678439e-05","11","0.00241045010503166","0.816579203720579"
"378","Gammaproteobacteria","SAR86_clade","79","1","2.38433018204361e-05","11","0.0345472828318181","Distance Not Calculated"
"379","Gammaproteobacteria","OM182_clade","31","2","1.53242966811619e-05","11","0.00870724470306834","0.635393185645809"
"380","Gammaproteobacteria","Halomonadaceae","4","0","NaN","5","0.000463970984419744","Distance Not Calculated"
"381","Gammaproteobacteria","Moraxellaceae","20","14","0.00303546214614401","5","0.000200275930805328","0.652218157815121"
"382","Gammaproteobacteria","Vibrionaceae","24","2","0.000210785265274907","11","0.000683862025394964","0.528230368861733"
"383","Gammaproteobacteria","Shewanellaceae","4","0","NaN","4","5.84700472669356e-05","Distance Not Calculated"
"384","Gammaproteobacteria","Pseudoalteromonadaceae","13","1","9.2976865665334e-05","11","0.00100246333323381","0.64535379369139"
"385","Gammaproteobacteria","Alteromonadales_unclassified","3","0","NaN","4","0.000407439786751814","Distance Not Calculated"
"386","Gammaproteobacteria","Moritellaceae","1","0","NaN","6","0.000395302675028855","Distance Not Calculated"
"387","Gammaproteobacteria","Psychromonadaceae","12","0","NaN","5","0.00126769662312763","Distance Not Calculated"
"388","Gammaproteobacteria","Enterobacteriaceae","6","9","8.50052596503227e-05","2","0.00154557307979251","0.609040775401069"
"389","Gammaproteobacteria","Aeromonadaceae","2","10","0.000237242482113822","0","NaN","Distance Not Calculated"
"390","Gammaproteobacteria","BD7-8_marine_group_unclassified","1","0","NaN","1","4.51916124367317e-05","Distance Not Calculated"
"391","Gammaproteobacteria","Family_Incertae_Sedis","23","0","NaN","11","0.00643954901562388","Distance Not Calculated"
"392","Gammaproteobacteria","SUP05_cluster","2","3","8.51716213184372e-05","0","NaN","Distance Not Calculated"
"393","Gammaproteobacteria","ZD0405","3","3","3.36704427848839e-05","10","0.107572322150008","Distance Not Calculated"
"394","Gammaproteobacteria","JL-ETNP-Y6","2","0","NaN","3","0.00017212890079189","Distance Not Calculated"
"395","Gammaproteobacteria","Francisellaceae","2","0","NaN","1","0.000116181801282647","Distance Not Calculated"
"396","Gammaproteobacteria","Thiotrichales_unclassified","2","0","NaN","5","0.000121891392123338","Distance Not Calculated"
"397","Gammaproteobacteria","H2-104-2","1","0","NaN","0","NaN","Distance Not Calculated"
"398","Gammaproteobacteria","Thiotrichales_Incertae_Sedis","8","0","NaN","10","0.000278638712358248","Distance Not Calculated"
"399","Gammaproteobacteria","Legionellaceae","37","10","0.0012636623384024","0","NaN","Distance Not Calculated"
"400","Gammaproteobacteria","CHAB-XI-27","2","1","1.1921650910218e-05","0","NaN","Distance Not Calculated"
"401","Gammaproteobacteria","NKB5_unclassified","3","3","0.000105727299105596","0","NaN","Distance Not Calculated"
"402","Gammaproteobacteria","Halothiobacillaceae","1","1","7.8823946715012e-05","0","NaN","Distance Not Calculated"
"403","Gammaproteobacteria","Salinisphaeraceae","45","1","1.46102710205274e-05","11","0.0245011113689853","Distance Not Calculated"
"404","Gammaproteobacteria","CrystalBog021C3","3","0","NaN","0","NaN","Distance Not Calculated"
"405","Gammaproteobacteria","E01-9C-26_marine_group_unclassified","47","1","1.46102710205274e-05","11","0.0163430758338035","Distance Not Calculated"
"406","Gammaproteobacteria","Arenicellaceae","1","0","NaN","0","NaN","Distance Not Calculated"
"407","Gammaproteobacteria","Xanthomonadaceae","5","10","0.00304980772746736","2","5.67914575337288e-05","0.588100686498856"
"408","Gammaproteobacteria","Xanthomonadales_unclassified","1","0","NaN","0","NaN","Distance Not Calculated"
"409","Gammaproteobacteria","Nevskiaceae","2","2","0.000617185060745061","0","NaN","Distance Not Calculated"
"410","JTB23","JTB23_unclassified","3","3","0.000395650838280318","3","5.67251056938519e-05","Distance Not Calculated"
"411","SC3-20","SC3-20_unclassified","5","0","NaN","1","4.64727205130588e-05","Distance Not Calculated"
"412","Proteobacteria_Incertae_Sedis","Unknown_Family","233","16","0.00537241576805294","11","0.0954376355662975","Distance Not Calculated"
"413","AEGEAN-245","AEGEAN-245_unclassified","12","0","NaN","11","0.00610571072220171","Distance Not Calculated"
"414","Betaproteobacteria","Nitrosomonadaceae","16","14","0.00779273214350586","0","NaN","Distance Not Calculated"
"415","Betaproteobacteria","Betaproteobacteria_unclassified","79","17","0.00637258088173444","7","0.000455257521203729","0.897286325108401"
"416","Betaproteobacteria","Hydrogenophilaceae","1","5","0.00010460007375779","0","NaN","Distance Not Calculated"
"417","Betaproteobacteria","Neisseriaceae","11","15","0.000819268637188094","0","NaN","Distance Not Calculated"
"418","Betaproteobacteria","Oxalobacteraceae","21","15","0.00181182094872596","0","NaN","Distance Not Calculated"
"419","Betaproteobacteria","Burkholderiales_unclassified","11","8","0.000518873601437483","0","NaN","Distance Not Calculated"
"420","Betaproteobacteria","Methylophilaceae","35","17","0.0342085880407507","8","0.00213848587519031","0.900165234633179"
"421","Betaproteobacteria","Gallionellaceae","9","10","0.0111308975843973","0","NaN","Distance Not Calculated"
"422","Betaproteobacteria","TRA3-20_unclassified","13","15","0.00823571676871261","0","NaN","Distance Not Calculated"
"423","Betaproteobacteria","Rhodocyclaceae","44","16","0.0117091434041652","0","NaN","Distance Not Calculated"
"424","Betaproteobacteria","Alcaligenaceae","31","17","0.00515380075117127","5","0.000284931374509173","0.627862964794942"
"425","Betaproteobacteria","Nitrosomonadales_unclassified","1","2","7.27890024204712e-05","0","NaN","Distance Not Calculated"
"426","Betaproteobacteria","B1-7BS_unclassified","1","1","0.000136812942504361","0","NaN","Distance Not Calculated"
"427","Betaproteobacteria","Burkholderiaceae","32","17","0.0304908600597506","4","4.90332859461446e-05","0.673732466107672"
"428","Betaproteobacteria","Comamonadaceae","175","17","0.0643727602538883","9","0.00032916167679155","0.718586732400043"
"429","Betaproteobacteria","Burkholderiales_Incertae_Sedis","1","1","4.76866036408722e-05","0","NaN","Distance Not Calculated"
"430","TA18","TA18_unclassified","16","8","0.00137343370063333","2","1.48894039787508e-05","Distance Not Calculated"
"431","Gemmatimonadetes","Gemmatimonadaceae","12","7","0.00306558053473712","0","NaN","Distance Not Calculated"
"432","Gemmatimonadetes","PAUC43f_marine_benthic_group_unclassified","2","0","NaN","3","0.000171875520488723","Distance Not Calculated"
"433","Gemmatimonadetes","BD2-11_terrestrial_group_unclassified","28","3","0.000343736654256711","11","0.00252520040232252","1"
"434","Caldiserica","Caldisericaceae","2","1","0.0470608949367407","0","NaN","Distance Not Calculated"
"435","Caldiserica","WCHB1-02","1","2","0.00156458766428529","0","NaN","Distance Not Calculated"
"436","TM6","TM6_unclassified","41","15","0.00153991260414027","1","0.00038547939014502","Distance Not Calculated"
"437","Chlamydiae","Chlamydiales_unclassified","32","12","0.000666652688974031","3","0.000128661585092087","Distance Not Calculated"
"438","Chlamydiae","Parachlamydiaceae","6","5","0.000311342357980027","0","NaN","Distance Not Calculated"
"439","Chlamydiae","Simkaniaceae","2","1","0.000143059810922617","0","NaN","Distance Not Calculated"
"440","PAUC34f","PAUC34f_unclassified","43","5","0.000437654917648193","11","0.00272794426069554","Distance Not Calculated"
"441","Nitrospirae","Nitrospiraceae","14","4","0.0152923463526617","4","0.00293234433937211","1"
"442","Chlorobi","SJA-28","2","9","0.000944484686412897","0","NaN","Distance Not Calculated"
"443","Chlorobi","Chlorobiaceae","18","10","0.0344985417558219","0","NaN","Distance Not Calculated"
"444","Chlorobi","Ignavibacteriales_unclassified","3","5","0.00330018517786107","0","NaN","Distance Not Calculated"
"445","Chlorobi","BSV26","4","5","0.00120884477089532","0","NaN","Distance Not Calculated"
"446","Chlorobi","Ignavibacteriaceae","1","2","0.00115177269112405","0","NaN","Distance Not Calculated"
"447","Chlorobi","OPB56","13","10","0.00384299642265325","0","NaN","Distance Not Calculated"
